<mxfile host="app.diagrams.net" modified="2023-04-20T16:21:08.105Z" agent="Mozilla/5.0 (Windows NT 10.0; Win64; x64) AppleWebKit/537.36 (KHTML, like Gecko) Chrome/112.0.0.0 Safari/537.36 Edg/112.0.1722.39" etag="OalSyHHYmQgSfoHNndU7" version="21.1.8" type="device">
  <diagram id="CJvEdSKLIJBnoUxgqjxI" name="Страница 1">
    <mxGraphModel dx="1434" dy="1944" grid="1" gridSize="10" guides="1" tooltips="1" connect="1" arrows="1" fold="1" page="1" pageScale="1" pageWidth="827" pageHeight="1169" math="0" shadow="0">
      <root>
        <mxCell id="0" />
        <mxCell id="1" parent="0" />
        <mxCell id="5JsjofjrpPDgLBYnoY3X-1" value="" style="rounded=1;whiteSpace=wrap;html=1;" parent="1" vertex="1">
          <mxGeometry x="480.01" y="-970" width="1169.99" height="930" as="geometry" />
        </mxCell>
        <mxCell id="n7dm7IWdY8Db8kC47B_b-60" value="" style="group" parent="1" vertex="1" connectable="0">
          <mxGeometry x="1140" y="-740" width="270" height="310" as="geometry" />
        </mxCell>
        <mxCell id="n7dm7IWdY8Db8kC47B_b-61" value="" style="sketch=0;pointerEvents=1;shadow=0;dashed=0;html=1;strokeColor=#6c8ebf;fillColor=#dae8fc;labelPosition=center;verticalLabelPosition=bottom;verticalAlign=top;align=center;outlineConnect=0;shape=mxgraph.veeam2.server;rounded=0;fontFamily=Helvetica;fontSize=13;movable=1;resizable=1;rotatable=1;deletable=1;editable=1;connectable=1;locked=0;" parent="n7dm7IWdY8Db8kC47B_b-60" vertex="1">
          <mxGeometry width="270" height="310" as="geometry" />
        </mxCell>
        <mxCell id="n7dm7IWdY8Db8kC47B_b-62" value="" style="group" parent="n7dm7IWdY8Db8kC47B_b-60" vertex="1" connectable="0">
          <mxGeometry x="167.79661016949152" y="53.420365535248045" width="80.84745762711864" height="250.91383812010446" as="geometry" />
        </mxCell>
        <mxCell id="n7dm7IWdY8Db8kC47B_b-63" value="" style="rounded=1;whiteSpace=wrap;html=1;fontSize=15;fillColor=#D5E8D4;movable=1;resizable=1;rotatable=1;deletable=1;editable=1;connectable=1;container=0;strokeColor=#006600;" parent="n7dm7IWdY8Db8kC47B_b-62" vertex="1">
          <mxGeometry width="61.01694915254237" height="97.12793733681463" as="geometry" />
        </mxCell>
        <mxCell id="n7dm7IWdY8Db8kC47B_b-64" value="&lt;div style=&quot;font-size: 9px;&quot;&gt;&lt;span style=&quot;background-color: initial;&quot;&gt;partition &lt;b&gt;A&lt;/b&gt;&lt;/span&gt;&lt;/div&gt;" style="text;html=1;strokeColor=none;fillColor=none;align=center;verticalAlign=middle;whiteSpace=wrap;rounded=0;movable=1;resizable=1;rotatable=1;deletable=1;editable=1;connectable=1;container=0;" parent="n7dm7IWdY8Db8kC47B_b-62" vertex="1">
          <mxGeometry width="61.01694915254237" height="16.187989556135772" as="geometry" />
        </mxCell>
        <mxCell id="n7dm7IWdY8Db8kC47B_b-65" value="&lt;span style=&quot;color: rgb(0, 0, 0); font-family: Helvetica; font-size: 11px; font-style: normal; font-variant-ligatures: normal; font-variant-caps: normal; letter-spacing: normal; orphans: 2; text-align: center; text-indent: 0px; text-transform: none; widows: 2; word-spacing: 0px; -webkit-text-stroke-width: 0px; background-color: initial; text-decoration-thickness: initial; text-decoration-style: initial; text-decoration-color: initial;&quot;&gt;version &lt;b&gt;1&lt;/b&gt;&lt;/span&gt;" style="text;html=1;strokeColor=none;fillColor=none;align=center;verticalAlign=middle;whiteSpace=wrap;rounded=0;fontSize=15;movable=1;resizable=1;rotatable=1;deletable=1;editable=1;connectable=1;container=0;" parent="n7dm7IWdY8Db8kC47B_b-62" vertex="1">
          <mxGeometry y="80.93994778067885" width="61.01694915254237" height="16.187989556135772" as="geometry" />
        </mxCell>
        <mxCell id="n7dm7IWdY8Db8kC47B_b-66" value="" style="aspect=fixed;perimeter=ellipsePerimeter;html=1;align=center;shadow=0;dashed=0;fontColor=#4277BB;labelBackgroundColor=#ffffff;fontSize=12;spacingTop=3;image;image=img/lib/ibm/applications/index.svg;imageBackground=none;movable=1;resizable=1;rotatable=1;deletable=1;editable=1;connectable=1;container=0;" parent="n7dm7IWdY8Db8kC47B_b-62" vertex="1">
          <mxGeometry y="16.187989556135772" width="61.01694915254237" height="61.01694915254237" as="geometry" />
        </mxCell>
        <mxCell id="n7dm7IWdY8Db8kC47B_b-67" value="" style="group;movable=1;resizable=1;rotatable=1;deletable=1;editable=1;connectable=1;locked=0;" parent="n7dm7IWdY8Db8kC47B_b-60" vertex="1" connectable="0">
          <mxGeometry x="167.79661016949152" y="178.0678851174935" width="61.01694915254237" height="97.12793733681463" as="geometry" />
        </mxCell>
        <mxCell id="n7dm7IWdY8Db8kC47B_b-68" value="" style="rounded=1;whiteSpace=wrap;html=1;fontSize=15;fillColor=#D5E8D4;movable=1;resizable=1;rotatable=1;deletable=1;editable=1;connectable=1;container=0;strokeColor=#006600;locked=0;" parent="n7dm7IWdY8Db8kC47B_b-67" vertex="1">
          <mxGeometry width="61.01694915254237" height="97.12793733681463" as="geometry" />
        </mxCell>
        <mxCell id="n7dm7IWdY8Db8kC47B_b-69" value="&lt;div style=&quot;font-size: 11px;&quot;&gt;&lt;span style=&quot;background-color: initial;&quot;&gt;partition &lt;b&gt;B&lt;/b&gt;&lt;/span&gt;&lt;/div&gt;" style="text;html=1;strokeColor=none;fillColor=none;align=center;verticalAlign=middle;whiteSpace=wrap;rounded=0;movable=1;resizable=1;rotatable=1;deletable=1;editable=1;connectable=1;container=0;locked=0;" parent="n7dm7IWdY8Db8kC47B_b-67" vertex="1">
          <mxGeometry width="61.01694915254237" height="16.187989556135772" as="geometry" />
        </mxCell>
        <mxCell id="n7dm7IWdY8Db8kC47B_b-70" value="&lt;span style=&quot;color: rgb(0, 0, 0); font-family: Helvetica; font-size: 12px; font-style: normal; font-variant-ligatures: normal; font-variant-caps: normal; letter-spacing: normal; orphans: 2; text-align: center; text-indent: 0px; text-transform: none; widows: 2; word-spacing: 0px; -webkit-text-stroke-width: 0px; background-color: initial; text-decoration-thickness: initial; text-decoration-style: initial; text-decoration-color: initial;&quot;&gt;version &lt;b&gt;1&lt;/b&gt;&lt;/span&gt;" style="text;html=1;strokeColor=none;fillColor=none;align=center;verticalAlign=middle;whiteSpace=wrap;rounded=0;fontSize=15;movable=1;resizable=1;rotatable=1;deletable=1;editable=1;connectable=1;container=0;locked=0;" parent="n7dm7IWdY8Db8kC47B_b-67" vertex="1">
          <mxGeometry y="80.93994778067885" width="61.01694915254237" height="16.187989556135772" as="geometry" />
        </mxCell>
        <mxCell id="n7dm7IWdY8Db8kC47B_b-71" value="" style="aspect=fixed;perimeter=ellipsePerimeter;html=1;align=center;shadow=0;dashed=0;fontColor=#4277BB;labelBackgroundColor=#ffffff;fontSize=12;spacingTop=3;image;image=img/lib/ibm/applications/index.svg;imageBackground=none;movable=1;resizable=1;rotatable=1;deletable=1;editable=1;connectable=1;container=0;locked=0;" parent="n7dm7IWdY8Db8kC47B_b-67" vertex="1">
          <mxGeometry y="16.187989556135772" width="61.01694915254237" height="61.01694915254237" as="geometry" />
        </mxCell>
        <mxCell id="n7dm7IWdY8Db8kC47B_b-72" value="" style="swimlane;startSize=0;" parent="n7dm7IWdY8Db8kC47B_b-60" vertex="1">
          <mxGeometry x="133.47457627118644" y="16.187989556135772" width="129.66101694915253" height="267.10182767624025" as="geometry">
            <mxRectangle x="1958" y="-330" width="50" height="40" as="alternateBounds" />
          </mxGeometry>
        </mxCell>
        <mxCell id="n7dm7IWdY8Db8kC47B_b-73" value="Swarm&lt;br&gt;worker" style="text;html=1;strokeColor=none;fillColor=none;align=center;verticalAlign=middle;whiteSpace=wrap;rounded=0;" parent="n7dm7IWdY8Db8kC47B_b-72" vertex="1">
          <mxGeometry x="41.94915254237293" y="9.52999999999998" width="45.762711864406775" height="24.281984334203656" as="geometry" />
        </mxCell>
        <mxCell id="n7dm7IWdY8Db8kC47B_b-74" value="Индекс 1" style="rounded=0;whiteSpace=wrap;html=1;" parent="n7dm7IWdY8Db8kC47B_b-60" vertex="1">
          <mxGeometry x="81.95000000000005" width="106.1" height="10" as="geometry" />
        </mxCell>
        <mxCell id="YXiRsPyqj9DePGO95qDk-161" value="" style="group" parent="1" vertex="1" connectable="0">
          <mxGeometry x="1930" y="-980" width="120" height="140" as="geometry" />
        </mxCell>
        <mxCell id="YXiRsPyqj9DePGO95qDk-160" value="" style="sketch=0;pointerEvents=1;shadow=0;dashed=0;html=1;strokeColor=none;fillColor=#E6E6E6;labelPosition=center;verticalLabelPosition=bottom;verticalAlign=top;align=center;outlineConnect=0;shape=mxgraph.veeam2.server;rounded=0;fontFamily=Helvetica;fontSize=13;fontColor=default;movable=1;resizable=1;rotatable=1;deletable=1;editable=1;connectable=1;" parent="YXiRsPyqj9DePGO95qDk-161" vertex="1">
          <mxGeometry width="120" height="140" as="geometry" />
        </mxCell>
        <mxCell id="YXiRsPyqj9DePGO95qDk-657" value="" style="group;movable=1;resizable=1;rotatable=1;deletable=1;editable=1;connectable=1;" parent="YXiRsPyqj9DePGO95qDk-161" vertex="1" connectable="0">
          <mxGeometry x="20" y="10" width="80" height="120" as="geometry" />
        </mxCell>
        <mxCell id="YXiRsPyqj9DePGO95qDk-658" value="" style="rounded=1;whiteSpace=wrap;html=1;fontSize=15;fillColor=#D5E8D4;movable=1;resizable=1;rotatable=1;deletable=1;editable=1;connectable=1;container=0;strokeColor=#006600;" parent="YXiRsPyqj9DePGO95qDk-657" vertex="1">
          <mxGeometry width="80" height="120" as="geometry" />
        </mxCell>
        <mxCell id="YXiRsPyqj9DePGO95qDk-659" value="&lt;div style=&quot;&quot;&gt;&lt;span style=&quot;font-size: 15px; background-color: initial;&quot;&gt;partition &lt;b&gt;A&lt;/b&gt;&lt;/span&gt;&lt;/div&gt;" style="text;html=1;strokeColor=none;fillColor=none;align=center;verticalAlign=middle;whiteSpace=wrap;rounded=0;movable=1;resizable=1;rotatable=1;deletable=1;editable=1;connectable=1;container=0;" parent="YXiRsPyqj9DePGO95qDk-657" vertex="1">
          <mxGeometry width="80" height="20" as="geometry" />
        </mxCell>
        <mxCell id="YXiRsPyqj9DePGO95qDk-660" value="&lt;span style=&quot;color: rgb(0, 0, 0); font-family: Helvetica; font-size: 15px; font-style: normal; font-variant-ligatures: normal; font-variant-caps: normal; letter-spacing: normal; orphans: 2; text-align: center; text-indent: 0px; text-transform: none; widows: 2; word-spacing: 0px; -webkit-text-stroke-width: 0px; background-color: initial; text-decoration-thickness: initial; text-decoration-style: initial; text-decoration-color: initial;&quot;&gt;version &lt;b&gt;1&lt;/b&gt;&lt;/span&gt;" style="text;html=1;strokeColor=none;fillColor=none;align=center;verticalAlign=middle;whiteSpace=wrap;rounded=0;fontSize=15;movable=1;resizable=1;rotatable=1;deletable=1;editable=1;connectable=1;container=0;" parent="YXiRsPyqj9DePGO95qDk-657" vertex="1">
          <mxGeometry y="100" width="80" height="20" as="geometry" />
        </mxCell>
        <mxCell id="YXiRsPyqj9DePGO95qDk-661" value="" style="aspect=fixed;perimeter=ellipsePerimeter;html=1;align=center;shadow=0;dashed=0;fontColor=#4277BB;labelBackgroundColor=#ffffff;fontSize=12;spacingTop=3;image;image=img/lib/ibm/applications/index.svg;imageBackground=none;movable=1;resizable=1;rotatable=1;deletable=1;editable=1;connectable=1;container=0;" parent="YXiRsPyqj9DePGO95qDk-657" vertex="1">
          <mxGeometry y="20" width="80" height="80" as="geometry" />
        </mxCell>
        <mxCell id="YXiRsPyqj9DePGO95qDk-162" style="edgeStyle=orthogonalEdgeStyle;rounded=0;orthogonalLoop=1;jettySize=auto;html=1;fontFamily=Helvetica;fontSize=16;fontColor=default;strokeWidth=3;fillColor=#d5e8d4;strokeColor=#82b366;" parent="1" target="YXiRsPyqj9DePGO95qDk-160" edge="1">
          <mxGeometry relative="1" as="geometry">
            <mxPoint x="2150" y="-740" as="sourcePoint" />
          </mxGeometry>
        </mxCell>
        <mxCell id="YXiRsPyqj9DePGO95qDk-188" value="" style="group" parent="1" vertex="1" connectable="0">
          <mxGeometry x="2130" y="-980" width="120" height="140" as="geometry" />
        </mxCell>
        <mxCell id="YXiRsPyqj9DePGO95qDk-164" value="" style="sketch=0;pointerEvents=1;shadow=0;dashed=0;html=1;strokeColor=none;fillColor=#E6E6E6;labelPosition=center;verticalLabelPosition=bottom;verticalAlign=top;align=center;outlineConnect=0;shape=mxgraph.veeam2.server;rounded=0;fontFamily=Helvetica;fontSize=13;fontColor=default;movable=1;resizable=1;rotatable=1;deletable=1;editable=1;connectable=1;" parent="YXiRsPyqj9DePGO95qDk-188" vertex="1">
          <mxGeometry width="120" height="140" as="geometry" />
        </mxCell>
        <mxCell id="YXiRsPyqj9DePGO95qDk-652" value="" style="group;movable=1;resizable=1;rotatable=1;deletable=1;editable=1;connectable=1;" parent="YXiRsPyqj9DePGO95qDk-188" vertex="1" connectable="0">
          <mxGeometry x="20" y="10" width="80" height="120" as="geometry" />
        </mxCell>
        <mxCell id="YXiRsPyqj9DePGO95qDk-653" value="" style="rounded=1;whiteSpace=wrap;html=1;fontSize=15;fillColor=#D5E8D4;movable=0;resizable=0;rotatable=0;deletable=0;editable=0;connectable=0;container=0;strokeColor=#006600;" parent="YXiRsPyqj9DePGO95qDk-652" vertex="1">
          <mxGeometry width="80" height="120" as="geometry" />
        </mxCell>
        <mxCell id="YXiRsPyqj9DePGO95qDk-654" value="&lt;div style=&quot;&quot;&gt;&lt;span style=&quot;font-size: 15px; background-color: initial;&quot;&gt;partition &lt;b&gt;B&lt;/b&gt;&lt;/span&gt;&lt;/div&gt;" style="text;html=1;strokeColor=none;fillColor=none;align=center;verticalAlign=middle;whiteSpace=wrap;rounded=0;movable=0;resizable=0;rotatable=0;deletable=0;editable=0;connectable=0;container=0;" parent="YXiRsPyqj9DePGO95qDk-652" vertex="1">
          <mxGeometry width="80" height="20" as="geometry" />
        </mxCell>
        <mxCell id="YXiRsPyqj9DePGO95qDk-655" value="&lt;span style=&quot;color: rgb(0, 0, 0); font-family: Helvetica; font-size: 15px; font-style: normal; font-variant-ligatures: normal; font-variant-caps: normal; letter-spacing: normal; orphans: 2; text-align: center; text-indent: 0px; text-transform: none; widows: 2; word-spacing: 0px; -webkit-text-stroke-width: 0px; background-color: initial; text-decoration-thickness: initial; text-decoration-style: initial; text-decoration-color: initial;&quot;&gt;version &lt;b&gt;1&lt;/b&gt;&lt;/span&gt;" style="text;html=1;strokeColor=none;fillColor=none;align=center;verticalAlign=middle;whiteSpace=wrap;rounded=0;fontSize=15;movable=0;resizable=0;rotatable=0;deletable=0;editable=0;connectable=0;container=0;" parent="YXiRsPyqj9DePGO95qDk-652" vertex="1">
          <mxGeometry y="100" width="80" height="20" as="geometry" />
        </mxCell>
        <mxCell id="YXiRsPyqj9DePGO95qDk-656" value="" style="aspect=fixed;perimeter=ellipsePerimeter;html=1;align=center;shadow=0;dashed=0;fontColor=#4277BB;labelBackgroundColor=#ffffff;fontSize=12;spacingTop=3;image;image=img/lib/ibm/applications/index.svg;imageBackground=none;movable=0;resizable=0;rotatable=0;deletable=0;editable=0;connectable=0;container=0;" parent="YXiRsPyqj9DePGO95qDk-652" vertex="1">
          <mxGeometry y="20" width="80" height="80" as="geometry" />
        </mxCell>
        <mxCell id="YXiRsPyqj9DePGO95qDk-190" style="edgeStyle=orthogonalEdgeStyle;rounded=0;orthogonalLoop=1;jettySize=auto;html=1;strokeWidth=3;fontFamily=Helvetica;fontSize=16;fontColor=default;fillColor=#d5e8d4;strokeColor=#82b366;" parent="1" target="YXiRsPyqj9DePGO95qDk-164" edge="1">
          <mxGeometry relative="1" as="geometry">
            <mxPoint x="2190" y="-800" as="sourcePoint" />
          </mxGeometry>
        </mxCell>
        <mxCell id="YXiRsPyqj9DePGO95qDk-201" value="" style="group" parent="1" vertex="1" connectable="0">
          <mxGeometry x="1930" y="-580" width="120" height="140" as="geometry" />
        </mxCell>
        <mxCell id="YXiRsPyqj9DePGO95qDk-202" value="" style="sketch=0;pointerEvents=1;shadow=0;dashed=0;html=1;strokeColor=none;fillColor=#E6E6E6;labelPosition=center;verticalLabelPosition=bottom;verticalAlign=top;align=center;outlineConnect=0;shape=mxgraph.veeam2.server;rounded=0;fontFamily=Helvetica;fontSize=13;fontColor=default;movable=1;resizable=1;rotatable=1;deletable=1;editable=1;connectable=1;" parent="YXiRsPyqj9DePGO95qDk-201" vertex="1">
          <mxGeometry width="120" height="140" as="geometry" />
        </mxCell>
        <mxCell id="YXiRsPyqj9DePGO95qDk-227" value="" style="group;movable=1;resizable=1;rotatable=1;deletable=1;editable=1;connectable=1;" parent="YXiRsPyqj9DePGO95qDk-201" vertex="1" connectable="0">
          <mxGeometry x="20" y="10" width="80" height="120" as="geometry" />
        </mxCell>
        <mxCell id="YXiRsPyqj9DePGO95qDk-228" value="" style="rounded=1;whiteSpace=wrap;html=1;fontSize=15;fillColor=#f8cecc;movable=1;resizable=1;rotatable=1;deletable=1;editable=1;connectable=1;strokeColor=#b85450;" parent="YXiRsPyqj9DePGO95qDk-227" vertex="1">
          <mxGeometry width="80" height="120" as="geometry" />
        </mxCell>
        <mxCell id="YXiRsPyqj9DePGO95qDk-229" value="" style="aspect=fixed;perimeter=ellipsePerimeter;html=1;align=center;shadow=0;dashed=0;fontColor=#4277BB;labelBackgroundColor=#ffffff;fontSize=12;spacingTop=3;image;image=img/lib/ibm/applications/index.svg;imageBackground=none;movable=0;resizable=0;rotatable=0;deletable=0;editable=0;connectable=0;" parent="YXiRsPyqj9DePGO95qDk-227" vertex="1">
          <mxGeometry y="20" width="80" height="80" as="geometry" />
        </mxCell>
        <mxCell id="YXiRsPyqj9DePGO95qDk-230" value="&lt;div style=&quot;&quot;&gt;&lt;span style=&quot;font-size: 15px; background-color: initial;&quot;&gt;partition&amp;nbsp;&lt;/span&gt;&lt;b style=&quot;font-size: 15px; background-color: initial;&quot;&gt;A&lt;/b&gt;&lt;/div&gt;" style="text;html=1;strokeColor=none;fillColor=none;align=center;verticalAlign=middle;whiteSpace=wrap;rounded=0;movable=0;resizable=0;rotatable=0;deletable=0;editable=0;connectable=0;" parent="YXiRsPyqj9DePGO95qDk-227" vertex="1">
          <mxGeometry width="80" height="20" as="geometry" />
        </mxCell>
        <mxCell id="YXiRsPyqj9DePGO95qDk-231" value="&lt;span style=&quot;color: rgb(0, 0, 0); font-family: Helvetica; font-size: 15px; font-style: normal; font-variant-ligatures: normal; font-variant-caps: normal; letter-spacing: normal; orphans: 2; text-align: center; text-indent: 0px; text-transform: none; widows: 2; word-spacing: 0px; -webkit-text-stroke-width: 0px; background-color: initial; text-decoration-thickness: initial; text-decoration-style: initial; text-decoration-color: initial;&quot;&gt;version &lt;b&gt;1&lt;/b&gt;&lt;/span&gt;" style="text;html=1;strokeColor=none;fillColor=none;align=center;verticalAlign=middle;whiteSpace=wrap;rounded=0;fontSize=15;movable=0;resizable=0;rotatable=0;deletable=0;editable=0;connectable=0;" parent="YXiRsPyqj9DePGO95qDk-227" vertex="1">
          <mxGeometry y="100" width="80" height="20" as="geometry" />
        </mxCell>
        <mxCell id="YXiRsPyqj9DePGO95qDk-208" style="edgeStyle=orthogonalEdgeStyle;rounded=0;orthogonalLoop=1;jettySize=auto;html=1;fontFamily=Helvetica;fontSize=16;fontColor=default;strokeWidth=3;fillColor=#f8cecc;strokeColor=#b85450;" parent="1" target="YXiRsPyqj9DePGO95qDk-202" edge="1">
          <mxGeometry relative="1" as="geometry">
            <mxPoint x="2150" y="-349.9473684210525" as="sourcePoint" />
          </mxGeometry>
        </mxCell>
        <mxCell id="YXiRsPyqj9DePGO95qDk-216" value="" style="group" parent="1" vertex="1" connectable="0">
          <mxGeometry x="2130" y="-590" width="120" height="140" as="geometry" />
        </mxCell>
        <mxCell id="YXiRsPyqj9DePGO95qDk-217" value="" style="sketch=0;pointerEvents=1;shadow=0;dashed=0;html=1;strokeColor=none;fillColor=#E6E6E6;labelPosition=center;verticalLabelPosition=bottom;verticalAlign=top;align=center;outlineConnect=0;shape=mxgraph.veeam2.server;rounded=0;fontFamily=Helvetica;fontSize=13;fontColor=default;movable=1;resizable=1;rotatable=1;deletable=1;editable=1;connectable=1;" parent="YXiRsPyqj9DePGO95qDk-216" vertex="1">
          <mxGeometry width="120" height="140" as="geometry" />
        </mxCell>
        <mxCell id="YXiRsPyqj9DePGO95qDk-663" value="" style="group;movable=1;resizable=1;rotatable=1;deletable=1;editable=1;connectable=1;" parent="YXiRsPyqj9DePGO95qDk-216" vertex="1" connectable="0">
          <mxGeometry x="20" y="10" width="80" height="120" as="geometry" />
        </mxCell>
        <mxCell id="YXiRsPyqj9DePGO95qDk-664" value="" style="rounded=1;whiteSpace=wrap;html=1;fontSize=15;fillColor=#D5E8D4;movable=0;resizable=0;rotatable=0;deletable=0;editable=0;connectable=0;container=0;strokeColor=#006600;" parent="YXiRsPyqj9DePGO95qDk-663" vertex="1">
          <mxGeometry width="80" height="120" as="geometry" />
        </mxCell>
        <mxCell id="YXiRsPyqj9DePGO95qDk-665" value="&lt;div style=&quot;&quot;&gt;&lt;span style=&quot;font-size: 15px; background-color: initial;&quot;&gt;partition &lt;b&gt;B&lt;/b&gt;&lt;/span&gt;&lt;/div&gt;" style="text;html=1;strokeColor=none;fillColor=none;align=center;verticalAlign=middle;whiteSpace=wrap;rounded=0;movable=0;resizable=0;rotatable=0;deletable=0;editable=0;connectable=0;container=0;" parent="YXiRsPyqj9DePGO95qDk-663" vertex="1">
          <mxGeometry width="80" height="20" as="geometry" />
        </mxCell>
        <mxCell id="YXiRsPyqj9DePGO95qDk-666" value="&lt;span style=&quot;color: rgb(0, 0, 0); font-family: Helvetica; font-size: 15px; font-style: normal; font-variant-ligatures: normal; font-variant-caps: normal; letter-spacing: normal; orphans: 2; text-align: center; text-indent: 0px; text-transform: none; widows: 2; word-spacing: 0px; -webkit-text-stroke-width: 0px; background-color: initial; text-decoration-thickness: initial; text-decoration-style: initial; text-decoration-color: initial;&quot;&gt;version &lt;b&gt;1&lt;/b&gt;&lt;/span&gt;" style="text;html=1;strokeColor=none;fillColor=none;align=center;verticalAlign=middle;whiteSpace=wrap;rounded=0;fontSize=15;movable=0;resizable=0;rotatable=0;deletable=0;editable=0;connectable=0;container=0;" parent="YXiRsPyqj9DePGO95qDk-663" vertex="1">
          <mxGeometry y="100" width="80" height="20" as="geometry" />
        </mxCell>
        <mxCell id="YXiRsPyqj9DePGO95qDk-667" value="" style="aspect=fixed;perimeter=ellipsePerimeter;html=1;align=center;shadow=0;dashed=0;fontColor=#4277BB;labelBackgroundColor=#ffffff;fontSize=12;spacingTop=3;image;image=img/lib/ibm/applications/index.svg;imageBackground=none;movable=0;resizable=0;rotatable=0;deletable=0;editable=0;connectable=0;container=0;" parent="YXiRsPyqj9DePGO95qDk-663" vertex="1">
          <mxGeometry y="20" width="80" height="80" as="geometry" />
        </mxCell>
        <mxCell id="YXiRsPyqj9DePGO95qDk-224" style="edgeStyle=orthogonalEdgeStyle;rounded=0;orthogonalLoop=1;jettySize=auto;html=1;strokeWidth=3;fontFamily=Helvetica;fontSize=16;fontColor=default;fillColor=#d5e8d4;strokeColor=#82b366;" parent="1" target="YXiRsPyqj9DePGO95qDk-217" edge="1">
          <mxGeometry relative="1" as="geometry">
            <mxPoint x="2190" y="-409.99999999999955" as="sourcePoint" />
          </mxGeometry>
        </mxCell>
        <mxCell id="YXiRsPyqj9DePGO95qDk-232" value="&lt;span style=&quot;font-size: 20px;&quot;&gt;Мы останавливаем партицию А, версии 1, чтобы на ее место поставить версию 2.&amp;nbsp;&lt;/span&gt;" style="text;html=1;strokeColor=none;fillColor=none;align=center;verticalAlign=middle;whiteSpace=wrap;rounded=0;shadow=0;fontFamily=Helvetica;fontSize=16;fontColor=default;" parent="1" vertex="1">
          <mxGeometry x="1712" y="-660" width="160" height="360" as="geometry" />
        </mxCell>
        <mxCell id="YXiRsPyqj9DePGO95qDk-235" value="&lt;span style=&quot;font-size: 20px;&quot;&gt;Теперь можно пустить трафик на партицию А и обновить партицию В&lt;/span&gt;" style="text;html=1;strokeColor=none;fillColor=none;align=center;verticalAlign=middle;whiteSpace=wrap;rounded=0;shadow=0;fontFamily=Helvetica;fontSize=16;fontColor=default;" parent="1" vertex="1">
          <mxGeometry x="1702" y="49.99999999999977" width="160" height="360" as="geometry" />
        </mxCell>
        <mxCell id="YXiRsPyqj9DePGO95qDk-300" value="&lt;h2&gt;&lt;font style=&quot;&quot;&gt;&lt;font style=&quot;font-size: 46px;&quot;&gt;Процесс обновление сервера&lt;/font&gt;&lt;/font&gt;&lt;/h2&gt;" style="text;html=1;strokeColor=none;fillColor=none;align=left;verticalAlign=middle;whiteSpace=wrap;rounded=0;fontSize=15;movable=1;resizable=1;rotatable=1;deletable=1;editable=1;connectable=1;" parent="1" vertex="1">
          <mxGeometry x="1730" y="-1120" width="720" height="80" as="geometry" />
        </mxCell>
        <mxCell id="YXiRsPyqj9DePGO95qDk-706" value="" style="group;movable=1;resizable=1;rotatable=1;deletable=1;editable=1;connectable=1;locked=0;" parent="1" vertex="1" connectable="0">
          <mxGeometry x="670" y="-674" width="80" height="120" as="geometry" />
        </mxCell>
        <mxCell id="YXiRsPyqj9DePGO95qDk-695" value="" style="rounded=1;whiteSpace=wrap;html=1;shadow=0;fontSize=15;movable=0;resizable=0;rotatable=0;deletable=0;editable=0;connectable=0;fillColor=#d5e8d4;strokeColor=#82b366;" parent="YXiRsPyqj9DePGO95qDk-706" vertex="1">
          <mxGeometry width="80" height="120" as="geometry" />
        </mxCell>
        <mxCell id="YXiRsPyqj9DePGO95qDk-704" value="" style="outlineConnect=0;dashed=0;verticalLabelPosition=bottom;verticalAlign=top;align=center;html=1;shape=mxgraph.aws3.application_load_balancer;fillColor=#F58534;gradientColor=none;fontSize=18;strokeColor=default;shadow=0;movable=1;resizable=1;rotatable=1;deletable=1;editable=1;connectable=1;locked=0;" parent="YXiRsPyqj9DePGO95qDk-706" vertex="1">
          <mxGeometry y="40" width="80" height="80" as="geometry" />
        </mxCell>
        <mxCell id="YXiRsPyqj9DePGO95qDk-705" value="&lt;font style=&quot;font-size: 13px;&quot;&gt;PARTICIAN&amp;nbsp;&lt;br&gt;GATEWAY&lt;/font&gt;" style="text;html=1;strokeColor=none;fillColor=none;align=center;verticalAlign=middle;whiteSpace=wrap;rounded=0;shadow=0;fontSize=18;movable=0;resizable=0;rotatable=0;deletable=0;editable=0;connectable=0;" parent="YXiRsPyqj9DePGO95qDk-706" vertex="1">
          <mxGeometry width="80" height="40" as="geometry" />
        </mxCell>
        <mxCell id="YXiRsPyqj9DePGO95qDk-712" value="" style="group" parent="1" vertex="1" connectable="0">
          <mxGeometry x="2150" y="-800" width="80" height="120" as="geometry" />
        </mxCell>
        <mxCell id="YXiRsPyqj9DePGO95qDk-713" value="" style="rounded=1;whiteSpace=wrap;html=1;shadow=0;fontSize=15;movable=1;resizable=1;rotatable=1;deletable=1;editable=1;connectable=1;fillColor=#d5e8d4;strokeColor=#82b366;" parent="YXiRsPyqj9DePGO95qDk-712" vertex="1">
          <mxGeometry width="80" height="120" as="geometry" />
        </mxCell>
        <mxCell id="YXiRsPyqj9DePGO95qDk-714" value="" style="outlineConnect=0;dashed=0;verticalLabelPosition=bottom;verticalAlign=top;align=center;html=1;shape=mxgraph.aws3.application_load_balancer;fillColor=#F58534;gradientColor=none;fontSize=18;strokeColor=default;shadow=0;movable=1;resizable=1;rotatable=1;deletable=1;editable=1;connectable=1;" parent="YXiRsPyqj9DePGO95qDk-712" vertex="1">
          <mxGeometry y="40" width="80" height="80" as="geometry" />
        </mxCell>
        <mxCell id="YXiRsPyqj9DePGO95qDk-715" value="&lt;font style=&quot;font-size: 13px;&quot;&gt;PARTICIAN&amp;nbsp;&lt;br&gt;GATEWAY&lt;/font&gt;" style="text;html=1;strokeColor=none;fillColor=none;align=center;verticalAlign=middle;whiteSpace=wrap;rounded=0;shadow=0;fontSize=18;movable=1;resizable=1;rotatable=1;deletable=1;editable=1;connectable=1;" parent="YXiRsPyqj9DePGO95qDk-712" vertex="1">
          <mxGeometry width="80" height="40" as="geometry" />
        </mxCell>
        <mxCell id="PDlk4fuJ3ZOCzDbHPE95-1" value="" style="group" parent="1" vertex="1" connectable="0">
          <mxGeometry x="1942" y="50" width="520" height="320" as="geometry" />
        </mxCell>
        <mxCell id="YXiRsPyqj9DePGO95qDk-306" style="edgeStyle=orthogonalEdgeStyle;rounded=0;orthogonalLoop=1;jettySize=auto;html=1;strokeColor=#b85450;strokeWidth=3;fontFamily=Helvetica;fontSize=27;fontColor=#333333;fillColor=#f8cecc;" parent="PDlk4fuJ3ZOCzDbHPE95-1" edge="1">
          <mxGeometry relative="1" as="geometry">
            <mxPoint x="260" y="200" as="sourcePoint" />
            <mxPoint x="260" y="140" as="targetPoint" />
          </mxGeometry>
        </mxCell>
        <mxCell id="YXiRsPyqj9DePGO95qDk-325" value="" style="group" parent="PDlk4fuJ3ZOCzDbHPE95-1" vertex="1" connectable="0">
          <mxGeometry width="120" height="140" as="geometry" />
        </mxCell>
        <mxCell id="YXiRsPyqj9DePGO95qDk-326" value="" style="sketch=0;pointerEvents=1;shadow=0;dashed=0;html=1;strokeColor=none;fillColor=#E6E6E6;labelPosition=center;verticalLabelPosition=bottom;verticalAlign=top;align=center;outlineConnect=0;shape=mxgraph.veeam2.server;rounded=0;fontFamily=Helvetica;fontSize=13;fontColor=default;movable=1;resizable=1;rotatable=1;deletable=1;editable=1;connectable=1;" parent="YXiRsPyqj9DePGO95qDk-325" vertex="1">
          <mxGeometry width="120" height="140" as="geometry" />
        </mxCell>
        <mxCell id="YXiRsPyqj9DePGO95qDk-688" value="" style="group;movable=1;resizable=1;rotatable=1;deletable=1;editable=1;connectable=1;" parent="YXiRsPyqj9DePGO95qDk-325" vertex="1" connectable="0">
          <mxGeometry x="20" y="10" width="80" height="120" as="geometry" />
        </mxCell>
        <mxCell id="YXiRsPyqj9DePGO95qDk-689" value="" style="rounded=1;whiteSpace=wrap;html=1;fontSize=15;fillColor=#D5E8D4;movable=1;resizable=1;rotatable=1;deletable=1;editable=1;connectable=1;container=0;strokeColor=#006600;" parent="YXiRsPyqj9DePGO95qDk-688" vertex="1">
          <mxGeometry width="80" height="120" as="geometry" />
        </mxCell>
        <mxCell id="YXiRsPyqj9DePGO95qDk-690" value="&lt;div style=&quot;&quot;&gt;&lt;span style=&quot;font-size: 15px; background-color: initial;&quot;&gt;partition &lt;b&gt;A&lt;/b&gt;&lt;/span&gt;&lt;/div&gt;" style="text;html=1;strokeColor=none;fillColor=none;align=center;verticalAlign=middle;whiteSpace=wrap;rounded=0;movable=1;resizable=1;rotatable=1;deletable=1;editable=1;connectable=1;container=0;" parent="YXiRsPyqj9DePGO95qDk-688" vertex="1">
          <mxGeometry width="80" height="20" as="geometry" />
        </mxCell>
        <mxCell id="YXiRsPyqj9DePGO95qDk-691" value="&lt;span style=&quot;color: rgb(0, 0, 0); font-family: Helvetica; font-size: 15px; font-style: normal; font-variant-ligatures: normal; font-variant-caps: normal; letter-spacing: normal; orphans: 2; text-align: center; text-indent: 0px; text-transform: none; widows: 2; word-spacing: 0px; -webkit-text-stroke-width: 0px; background-color: initial; text-decoration-thickness: initial; text-decoration-style: initial; text-decoration-color: initial;&quot;&gt;version &lt;b&gt;2&lt;/b&gt;&lt;/span&gt;" style="text;html=1;strokeColor=none;fillColor=none;align=center;verticalAlign=middle;whiteSpace=wrap;rounded=0;fontSize=15;movable=1;resizable=1;rotatable=1;deletable=1;editable=1;connectable=1;container=0;" parent="YXiRsPyqj9DePGO95qDk-688" vertex="1">
          <mxGeometry y="100" width="80" height="20" as="geometry" />
        </mxCell>
        <mxCell id="YXiRsPyqj9DePGO95qDk-692" value="" style="aspect=fixed;perimeter=ellipsePerimeter;html=1;align=center;shadow=0;dashed=0;fontColor=#4277BB;labelBackgroundColor=#ffffff;fontSize=12;spacingTop=3;image;image=img/lib/ibm/applications/index.svg;imageBackground=none;movable=1;resizable=1;rotatable=1;deletable=1;editable=1;connectable=1;container=0;" parent="YXiRsPyqj9DePGO95qDk-688" vertex="1">
          <mxGeometry y="20" width="80" height="80" as="geometry" />
        </mxCell>
        <mxCell id="YXiRsPyqj9DePGO95qDk-333" style="edgeStyle=orthogonalEdgeStyle;rounded=0;orthogonalLoop=1;jettySize=auto;html=1;strokeColor=#82b366;strokeWidth=3;fontFamily=Helvetica;fontSize=27;fontColor=#333333;fillColor=#d5e8d4;" parent="PDlk4fuJ3ZOCzDbHPE95-1" target="YXiRsPyqj9DePGO95qDk-326" edge="1">
          <mxGeometry relative="1" as="geometry">
            <mxPoint x="220" y="260.0526315789475" as="sourcePoint" />
          </mxGeometry>
        </mxCell>
        <mxCell id="YXiRsPyqj9DePGO95qDk-720" value="" style="group" parent="PDlk4fuJ3ZOCzDbHPE95-1" vertex="1" connectable="0">
          <mxGeometry x="220" y="200" width="80" height="120" as="geometry" />
        </mxCell>
        <mxCell id="YXiRsPyqj9DePGO95qDk-721" value="" style="rounded=1;whiteSpace=wrap;html=1;shadow=0;fontSize=15;movable=1;resizable=1;rotatable=1;deletable=1;editable=1;connectable=1;fillColor=#d5e8d4;strokeColor=#82b366;" parent="YXiRsPyqj9DePGO95qDk-720" vertex="1">
          <mxGeometry width="80" height="120" as="geometry" />
        </mxCell>
        <mxCell id="YXiRsPyqj9DePGO95qDk-722" value="" style="outlineConnect=0;dashed=0;verticalLabelPosition=bottom;verticalAlign=top;align=center;html=1;shape=mxgraph.aws3.application_load_balancer;fillColor=#F58534;gradientColor=none;fontSize=18;strokeColor=default;shadow=0;movable=1;resizable=1;rotatable=1;deletable=1;editable=1;connectable=1;" parent="YXiRsPyqj9DePGO95qDk-720" vertex="1">
          <mxGeometry y="40" width="80" height="80" as="geometry" />
        </mxCell>
        <mxCell id="YXiRsPyqj9DePGO95qDk-723" value="&lt;font style=&quot;font-size: 13px;&quot;&gt;PARTICIAN&amp;nbsp;&lt;br&gt;GATEWAY&lt;/font&gt;" style="text;html=1;strokeColor=none;fillColor=none;align=center;verticalAlign=middle;whiteSpace=wrap;rounded=0;shadow=0;fontSize=18;movable=1;resizable=1;rotatable=1;deletable=1;editable=1;connectable=1;" parent="YXiRsPyqj9DePGO95qDk-720" vertex="1">
          <mxGeometry width="80" height="40" as="geometry" />
        </mxCell>
        <mxCell id="R55W_eNhgEZuxN9_E6_g-5" value="" style="group;movable=1;resizable=1;rotatable=1;deletable=1;editable=1;connectable=1;locked=0;" vertex="1" connectable="0" parent="PDlk4fuJ3ZOCzDbHPE95-1">
          <mxGeometry x="220" y="20" width="80" height="120" as="geometry" />
        </mxCell>
        <mxCell id="R55W_eNhgEZuxN9_E6_g-6" value="" style="rounded=1;whiteSpace=wrap;html=1;fontSize=15;fillColor=#f8cecc;movable=0;resizable=0;rotatable=0;deletable=0;editable=0;connectable=0;container=0;strokeColor=#b85450;" vertex="1" parent="R55W_eNhgEZuxN9_E6_g-5">
          <mxGeometry width="80" height="120" as="geometry" />
        </mxCell>
        <mxCell id="R55W_eNhgEZuxN9_E6_g-7" value="" style="aspect=fixed;perimeter=ellipsePerimeter;html=1;align=center;shadow=0;dashed=0;fontColor=#4277BB;labelBackgroundColor=#ffffff;fontSize=12;spacingTop=3;image;image=img/lib/ibm/applications/index.svg;imageBackground=none;movable=1;resizable=1;rotatable=1;deletable=1;editable=1;connectable=1;container=0;locked=0;" vertex="1" parent="R55W_eNhgEZuxN9_E6_g-5">
          <mxGeometry y="20" width="80" height="80" as="geometry" />
        </mxCell>
        <mxCell id="R55W_eNhgEZuxN9_E6_g-8" value="&lt;div style=&quot;&quot;&gt;&lt;span style=&quot;font-size: 15px; background-color: initial;&quot;&gt;partition &lt;b&gt;B&lt;/b&gt;&lt;/span&gt;&lt;/div&gt;" style="text;html=1;strokeColor=none;fillColor=none;align=center;verticalAlign=middle;whiteSpace=wrap;rounded=0;movable=0;resizable=0;rotatable=0;deletable=0;editable=0;connectable=0;container=0;" vertex="1" parent="R55W_eNhgEZuxN9_E6_g-5">
          <mxGeometry width="80" height="20" as="geometry" />
        </mxCell>
        <mxCell id="R55W_eNhgEZuxN9_E6_g-9" value="&lt;span style=&quot;color: rgb(0, 0, 0); font-family: Helvetica; font-size: 15px; font-style: normal; font-variant-ligatures: normal; font-variant-caps: normal; letter-spacing: normal; orphans: 2; text-align: center; text-indent: 0px; text-transform: none; widows: 2; word-spacing: 0px; -webkit-text-stroke-width: 0px; background-color: initial; text-decoration-thickness: initial; text-decoration-style: initial; text-decoration-color: initial;&quot;&gt;version &lt;b&gt;1&lt;/b&gt;&lt;/span&gt;" style="text;html=1;strokeColor=none;fillColor=none;align=center;verticalAlign=middle;whiteSpace=wrap;rounded=0;fontSize=15;movable=0;resizable=0;rotatable=0;deletable=0;editable=0;connectable=0;container=0;" vertex="1" parent="R55W_eNhgEZuxN9_E6_g-5">
          <mxGeometry y="100" width="80" height="20" as="geometry" />
        </mxCell>
        <mxCell id="PDlk4fuJ3ZOCzDbHPE95-3" value="&lt;span style=&quot;font-size: 20px;&quot;&gt;Изначальное состояние системы.&lt;br&gt;Работает партиции A, B, C - все первой версии&lt;br&gt;&lt;/span&gt;" style="text;html=1;strokeColor=none;fillColor=none;align=center;verticalAlign=middle;whiteSpace=wrap;rounded=0;shadow=0;fontFamily=Helvetica;fontSize=16;fontColor=default;" parent="1" vertex="1">
          <mxGeometry x="1712" y="-1050" width="160" height="360" as="geometry" />
        </mxCell>
        <mxCell id="YXiRsPyqj9DePGO95qDk-74" value="" style="outlineConnect=0;dashed=0;verticalLabelPosition=bottom;verticalAlign=top;align=center;html=1;shape=mxgraph.aws3.machine_learning;fillColor=#2E73B8;gradientColor=none;shadow=0;strokeColor=#000000;fontSize=13;movable=1;resizable=1;rotatable=1;deletable=1;editable=1;connectable=1;locked=0;" parent="1" vertex="1">
          <mxGeometry x="673.5" y="-464" width="76.5" height="93" as="geometry" />
        </mxCell>
        <mxCell id="YXiRsPyqj9DePGO95qDk-75" value="EMBEDDING" style="text;html=1;strokeColor=none;fillColor=none;align=center;verticalAlign=middle;whiteSpace=wrap;rounded=0;shadow=0;fontSize=13;movable=1;resizable=1;rotatable=1;deletable=1;editable=1;connectable=1;locked=0;" parent="1" vertex="1">
          <mxGeometry x="673.5" y="-371" width="80" height="30" as="geometry" />
        </mxCell>
        <mxCell id="n7dm7IWdY8Db8kC47B_b-44" value="" style="group" parent="1" vertex="1" connectable="0">
          <mxGeometry x="840" y="-740" width="270" height="310" as="geometry" />
        </mxCell>
        <mxCell id="YXiRsPyqj9DePGO95qDk-194" value="" style="sketch=0;pointerEvents=1;shadow=0;dashed=0;html=1;strokeColor=#6c8ebf;fillColor=#dae8fc;labelPosition=center;verticalLabelPosition=bottom;verticalAlign=top;align=center;outlineConnect=0;shape=mxgraph.veeam2.server;rounded=0;fontFamily=Helvetica;fontSize=13;movable=1;resizable=1;rotatable=1;deletable=1;editable=1;connectable=1;locked=0;" parent="n7dm7IWdY8Db8kC47B_b-44" vertex="1">
          <mxGeometry width="270" height="310" as="geometry" />
        </mxCell>
        <mxCell id="n7dm7IWdY8Db8kC47B_b-12" value="" style="group" parent="n7dm7IWdY8Db8kC47B_b-44" vertex="1" connectable="0">
          <mxGeometry x="167.79661016949152" y="53.420365535248045" width="80.84745762711864" height="250.91383812010446" as="geometry" />
        </mxCell>
        <mxCell id="YXiRsPyqj9DePGO95qDk-557" value="" style="rounded=1;whiteSpace=wrap;html=1;fontSize=15;fillColor=#D5E8D4;movable=1;resizable=1;rotatable=1;deletable=1;editable=1;connectable=1;container=0;strokeColor=#006600;" parent="n7dm7IWdY8Db8kC47B_b-12" vertex="1">
          <mxGeometry width="61.01694915254237" height="97.12793733681463" as="geometry" />
        </mxCell>
        <mxCell id="YXiRsPyqj9DePGO95qDk-559" value="&lt;div style=&quot;font-size: 9px;&quot;&gt;&lt;span style=&quot;background-color: initial;&quot;&gt;partition &lt;b&gt;A&lt;/b&gt;&lt;/span&gt;&lt;/div&gt;" style="text;html=1;strokeColor=none;fillColor=none;align=center;verticalAlign=middle;whiteSpace=wrap;rounded=0;movable=1;resizable=1;rotatable=1;deletable=1;editable=1;connectable=1;container=0;" parent="n7dm7IWdY8Db8kC47B_b-12" vertex="1">
          <mxGeometry width="61.01694915254237" height="16.187989556135772" as="geometry" />
        </mxCell>
        <mxCell id="YXiRsPyqj9DePGO95qDk-560" value="&lt;span style=&quot;color: rgb(0, 0, 0); font-family: Helvetica; font-size: 11px; font-style: normal; font-variant-ligatures: normal; font-variant-caps: normal; letter-spacing: normal; orphans: 2; text-align: center; text-indent: 0px; text-transform: none; widows: 2; word-spacing: 0px; -webkit-text-stroke-width: 0px; background-color: initial; text-decoration-thickness: initial; text-decoration-style: initial; text-decoration-color: initial;&quot;&gt;version &lt;b&gt;1&lt;/b&gt;&lt;/span&gt;" style="text;html=1;strokeColor=none;fillColor=none;align=center;verticalAlign=middle;whiteSpace=wrap;rounded=0;fontSize=15;movable=1;resizable=1;rotatable=1;deletable=1;editable=1;connectable=1;container=0;" parent="n7dm7IWdY8Db8kC47B_b-12" vertex="1">
          <mxGeometry y="80.93994778067885" width="61.01694915254237" height="16.187989556135772" as="geometry" />
        </mxCell>
        <mxCell id="YXiRsPyqj9DePGO95qDk-558" value="" style="aspect=fixed;perimeter=ellipsePerimeter;html=1;align=center;shadow=0;dashed=0;fontColor=#4277BB;labelBackgroundColor=#ffffff;fontSize=12;spacingTop=3;image;image=img/lib/ibm/applications/index.svg;imageBackground=none;movable=1;resizable=1;rotatable=1;deletable=1;editable=1;connectable=1;container=0;" parent="n7dm7IWdY8Db8kC47B_b-12" vertex="1">
          <mxGeometry y="16.187989556135772" width="61.01694915254237" height="61.01694915254237" as="geometry" />
        </mxCell>
        <mxCell id="YXiRsPyqj9DePGO95qDk-577" value="" style="group;movable=1;resizable=1;rotatable=1;deletable=1;editable=1;connectable=1;locked=0;" parent="n7dm7IWdY8Db8kC47B_b-44" vertex="1" connectable="0">
          <mxGeometry x="167.79661016949152" y="178.0678851174935" width="61.01694915254237" height="97.12793733681463" as="geometry" />
        </mxCell>
        <mxCell id="YXiRsPyqj9DePGO95qDk-578" value="" style="rounded=1;whiteSpace=wrap;html=1;fontSize=15;fillColor=#D5E8D4;movable=1;resizable=1;rotatable=1;deletable=1;editable=1;connectable=1;container=0;strokeColor=#006600;locked=0;" parent="YXiRsPyqj9DePGO95qDk-577" vertex="1">
          <mxGeometry width="61.01694915254237" height="97.12793733681463" as="geometry" />
        </mxCell>
        <mxCell id="YXiRsPyqj9DePGO95qDk-579" value="&lt;div style=&quot;font-size: 11px;&quot;&gt;&lt;span style=&quot;background-color: initial;&quot;&gt;partition &lt;b&gt;B&lt;/b&gt;&lt;/span&gt;&lt;/div&gt;" style="text;html=1;strokeColor=none;fillColor=none;align=center;verticalAlign=middle;whiteSpace=wrap;rounded=0;movable=1;resizable=1;rotatable=1;deletable=1;editable=1;connectable=1;container=0;locked=0;" parent="YXiRsPyqj9DePGO95qDk-577" vertex="1">
          <mxGeometry width="61.01694915254237" height="16.187989556135772" as="geometry" />
        </mxCell>
        <mxCell id="YXiRsPyqj9DePGO95qDk-580" value="&lt;span style=&quot;color: rgb(0, 0, 0); font-family: Helvetica; font-size: 12px; font-style: normal; font-variant-ligatures: normal; font-variant-caps: normal; letter-spacing: normal; orphans: 2; text-align: center; text-indent: 0px; text-transform: none; widows: 2; word-spacing: 0px; -webkit-text-stroke-width: 0px; background-color: initial; text-decoration-thickness: initial; text-decoration-style: initial; text-decoration-color: initial;&quot;&gt;version &lt;b&gt;1&lt;/b&gt;&lt;/span&gt;" style="text;html=1;strokeColor=none;fillColor=none;align=center;verticalAlign=middle;whiteSpace=wrap;rounded=0;fontSize=15;movable=1;resizable=1;rotatable=1;deletable=1;editable=1;connectable=1;container=0;locked=0;" parent="YXiRsPyqj9DePGO95qDk-577" vertex="1">
          <mxGeometry y="80.93994778067885" width="61.01694915254237" height="16.187989556135772" as="geometry" />
        </mxCell>
        <mxCell id="YXiRsPyqj9DePGO95qDk-581" value="" style="aspect=fixed;perimeter=ellipsePerimeter;html=1;align=center;shadow=0;dashed=0;fontColor=#4277BB;labelBackgroundColor=#ffffff;fontSize=12;spacingTop=3;image;image=img/lib/ibm/applications/index.svg;imageBackground=none;movable=1;resizable=1;rotatable=1;deletable=1;editable=1;connectable=1;container=0;locked=0;" parent="YXiRsPyqj9DePGO95qDk-577" vertex="1">
          <mxGeometry y="16.187989556135772" width="61.01694915254237" height="61.01694915254237" as="geometry" />
        </mxCell>
        <mxCell id="n7dm7IWdY8Db8kC47B_b-19" value="" style="swimlane;startSize=0;" parent="n7dm7IWdY8Db8kC47B_b-44" vertex="1">
          <mxGeometry x="133.47457627118644" y="16.187989556135772" width="129.66101694915253" height="267.10182767624025" as="geometry">
            <mxRectangle x="1958" y="-330" width="50" height="40" as="alternateBounds" />
          </mxGeometry>
        </mxCell>
        <mxCell id="n7dm7IWdY8Db8kC47B_b-24" value="Swarm&lt;br&gt;worker" style="text;html=1;strokeColor=none;fillColor=none;align=center;verticalAlign=middle;whiteSpace=wrap;rounded=0;" parent="n7dm7IWdY8Db8kC47B_b-19" vertex="1">
          <mxGeometry x="41.94915254237293" y="9.52999999999998" width="45.762711864406775" height="24.281984334203656" as="geometry" />
        </mxCell>
        <mxCell id="n7dm7IWdY8Db8kC47B_b-29" value="Индекс 0" style="rounded=0;whiteSpace=wrap;html=1;" parent="n7dm7IWdY8Db8kC47B_b-44" vertex="1">
          <mxGeometry x="81.95000000000005" width="106.1" height="10" as="geometry" />
        </mxCell>
        <mxCell id="n7dm7IWdY8Db8kC47B_b-92" style="edgeStyle=orthogonalEdgeStyle;rounded=0;orthogonalLoop=1;jettySize=auto;html=1;entryX=0.011;entryY=0.469;entryDx=0;entryDy=0;entryPerimeter=0;" parent="n7dm7IWdY8Db8kC47B_b-44" source="n7dm7IWdY8Db8kC47B_b-18" target="n7dm7IWdY8Db8kC47B_b-19" edge="1">
          <mxGeometry relative="1" as="geometry">
            <Array as="points">
              <mxPoint x="110" y="140" />
              <mxPoint x="110" y="142" />
            </Array>
          </mxGeometry>
        </mxCell>
        <mxCell id="n7dm7IWdY8Db8kC47B_b-18" value="Swarm manager" style="rounded=0;whiteSpace=wrap;html=1;" parent="n7dm7IWdY8Db8kC47B_b-44" vertex="1">
          <mxGeometry x="10" y="110" width="70" height="60" as="geometry" />
        </mxCell>
        <mxCell id="n7dm7IWdY8Db8kC47B_b-45" value="" style="group" parent="1" vertex="1" connectable="0">
          <mxGeometry x="1140" y="-420" width="270" height="310" as="geometry" />
        </mxCell>
        <mxCell id="n7dm7IWdY8Db8kC47B_b-46" value="" style="sketch=0;pointerEvents=1;shadow=0;dashed=0;html=1;strokeColor=#6c8ebf;fillColor=#dae8fc;labelPosition=center;verticalLabelPosition=bottom;verticalAlign=top;align=center;outlineConnect=0;shape=mxgraph.veeam2.server;rounded=0;fontFamily=Helvetica;fontSize=13;movable=1;resizable=1;rotatable=1;deletable=1;editable=1;connectable=1;locked=0;" parent="n7dm7IWdY8Db8kC47B_b-45" vertex="1">
          <mxGeometry width="270" height="310" as="geometry" />
        </mxCell>
        <mxCell id="n7dm7IWdY8Db8kC47B_b-47" value="" style="group" parent="n7dm7IWdY8Db8kC47B_b-45" vertex="1" connectable="0">
          <mxGeometry x="167.79661016949152" y="53.420365535248045" width="80.84745762711864" height="250.91383812010446" as="geometry" />
        </mxCell>
        <mxCell id="n7dm7IWdY8Db8kC47B_b-48" value="" style="rounded=1;whiteSpace=wrap;html=1;fontSize=15;fillColor=#D5E8D4;movable=1;resizable=1;rotatable=1;deletable=1;editable=1;connectable=1;container=0;strokeColor=#006600;" parent="n7dm7IWdY8Db8kC47B_b-47" vertex="1">
          <mxGeometry width="61.01694915254237" height="97.12793733681463" as="geometry" />
        </mxCell>
        <mxCell id="n7dm7IWdY8Db8kC47B_b-49" value="&lt;div style=&quot;font-size: 9px;&quot;&gt;&lt;span style=&quot;background-color: initial;&quot;&gt;partition &lt;b&gt;A&lt;/b&gt;&lt;/span&gt;&lt;/div&gt;" style="text;html=1;strokeColor=none;fillColor=none;align=center;verticalAlign=middle;whiteSpace=wrap;rounded=0;movable=1;resizable=1;rotatable=1;deletable=1;editable=1;connectable=1;container=0;" parent="n7dm7IWdY8Db8kC47B_b-47" vertex="1">
          <mxGeometry width="61.01694915254237" height="16.187989556135772" as="geometry" />
        </mxCell>
        <mxCell id="n7dm7IWdY8Db8kC47B_b-50" value="&lt;span style=&quot;color: rgb(0, 0, 0); font-family: Helvetica; font-size: 11px; font-style: normal; font-variant-ligatures: normal; font-variant-caps: normal; letter-spacing: normal; orphans: 2; text-align: center; text-indent: 0px; text-transform: none; widows: 2; word-spacing: 0px; -webkit-text-stroke-width: 0px; background-color: initial; text-decoration-thickness: initial; text-decoration-style: initial; text-decoration-color: initial;&quot;&gt;version &lt;b&gt;1&lt;/b&gt;&lt;/span&gt;" style="text;html=1;strokeColor=none;fillColor=none;align=center;verticalAlign=middle;whiteSpace=wrap;rounded=0;fontSize=15;movable=1;resizable=1;rotatable=1;deletable=1;editable=1;connectable=1;container=0;" parent="n7dm7IWdY8Db8kC47B_b-47" vertex="1">
          <mxGeometry y="80.93994778067885" width="61.01694915254237" height="16.187989556135772" as="geometry" />
        </mxCell>
        <mxCell id="n7dm7IWdY8Db8kC47B_b-51" value="" style="aspect=fixed;perimeter=ellipsePerimeter;html=1;align=center;shadow=0;dashed=0;fontColor=#4277BB;labelBackgroundColor=#ffffff;fontSize=12;spacingTop=3;image;image=img/lib/ibm/applications/index.svg;imageBackground=none;movable=1;resizable=1;rotatable=1;deletable=1;editable=1;connectable=1;container=0;" parent="n7dm7IWdY8Db8kC47B_b-47" vertex="1">
          <mxGeometry y="16.187989556135772" width="61.01694915254237" height="61.01694915254237" as="geometry" />
        </mxCell>
        <mxCell id="n7dm7IWdY8Db8kC47B_b-52" value="" style="group;movable=1;resizable=1;rotatable=1;deletable=1;editable=1;connectable=1;locked=0;" parent="n7dm7IWdY8Db8kC47B_b-45" vertex="1" connectable="0">
          <mxGeometry x="167.79661016949152" y="178.0678851174935" width="61.01694915254237" height="97.12793733681463" as="geometry" />
        </mxCell>
        <mxCell id="n7dm7IWdY8Db8kC47B_b-53" value="" style="rounded=1;whiteSpace=wrap;html=1;fontSize=15;fillColor=#D5E8D4;movable=1;resizable=1;rotatable=1;deletable=1;editable=1;connectable=1;container=0;strokeColor=#006600;locked=0;" parent="n7dm7IWdY8Db8kC47B_b-52" vertex="1">
          <mxGeometry width="61.01694915254237" height="97.12793733681463" as="geometry" />
        </mxCell>
        <mxCell id="n7dm7IWdY8Db8kC47B_b-54" value="&lt;div style=&quot;font-size: 11px;&quot;&gt;&lt;span style=&quot;background-color: initial;&quot;&gt;partition &lt;b&gt;B&lt;/b&gt;&lt;/span&gt;&lt;/div&gt;" style="text;html=1;strokeColor=none;fillColor=none;align=center;verticalAlign=middle;whiteSpace=wrap;rounded=0;movable=1;resizable=1;rotatable=1;deletable=1;editable=1;connectable=1;container=0;locked=0;" parent="n7dm7IWdY8Db8kC47B_b-52" vertex="1">
          <mxGeometry width="61.01694915254237" height="16.187989556135772" as="geometry" />
        </mxCell>
        <mxCell id="n7dm7IWdY8Db8kC47B_b-55" value="&lt;span style=&quot;color: rgb(0, 0, 0); font-family: Helvetica; font-size: 12px; font-style: normal; font-variant-ligatures: normal; font-variant-caps: normal; letter-spacing: normal; orphans: 2; text-align: center; text-indent: 0px; text-transform: none; widows: 2; word-spacing: 0px; -webkit-text-stroke-width: 0px; background-color: initial; text-decoration-thickness: initial; text-decoration-style: initial; text-decoration-color: initial;&quot;&gt;version &lt;b&gt;1&lt;/b&gt;&lt;/span&gt;" style="text;html=1;strokeColor=none;fillColor=none;align=center;verticalAlign=middle;whiteSpace=wrap;rounded=0;fontSize=15;movable=1;resizable=1;rotatable=1;deletable=1;editable=1;connectable=1;container=0;locked=0;" parent="n7dm7IWdY8Db8kC47B_b-52" vertex="1">
          <mxGeometry y="80.93994778067885" width="61.01694915254237" height="16.187989556135772" as="geometry" />
        </mxCell>
        <mxCell id="n7dm7IWdY8Db8kC47B_b-56" value="" style="aspect=fixed;perimeter=ellipsePerimeter;html=1;align=center;shadow=0;dashed=0;fontColor=#4277BB;labelBackgroundColor=#ffffff;fontSize=12;spacingTop=3;image;image=img/lib/ibm/applications/index.svg;imageBackground=none;movable=1;resizable=1;rotatable=1;deletable=1;editable=1;connectable=1;container=0;locked=0;" parent="n7dm7IWdY8Db8kC47B_b-52" vertex="1">
          <mxGeometry y="16.187989556135772" width="61.01694915254237" height="61.01694915254237" as="geometry" />
        </mxCell>
        <mxCell id="n7dm7IWdY8Db8kC47B_b-57" value="" style="swimlane;startSize=0;" parent="n7dm7IWdY8Db8kC47B_b-45" vertex="1">
          <mxGeometry x="133.47457627118644" y="16.187989556135772" width="129.66101694915253" height="267.10182767624025" as="geometry">
            <mxRectangle x="1958" y="-330" width="50" height="40" as="alternateBounds" />
          </mxGeometry>
        </mxCell>
        <mxCell id="n7dm7IWdY8Db8kC47B_b-58" value="Swarm&lt;br&gt;worker" style="text;html=1;strokeColor=none;fillColor=none;align=center;verticalAlign=middle;whiteSpace=wrap;rounded=0;" parent="n7dm7IWdY8Db8kC47B_b-57" vertex="1">
          <mxGeometry x="41.94915254237293" y="9.52999999999998" width="45.762711864406775" height="24.281984334203656" as="geometry" />
        </mxCell>
        <mxCell id="n7dm7IWdY8Db8kC47B_b-59" value="Индекс 3" style="rounded=0;whiteSpace=wrap;html=1;" parent="n7dm7IWdY8Db8kC47B_b-45" vertex="1">
          <mxGeometry x="81.95000000000005" width="106.1" height="10" as="geometry" />
        </mxCell>
        <mxCell id="n7dm7IWdY8Db8kC47B_b-75" value="" style="group" parent="1" vertex="1" connectable="0">
          <mxGeometry x="840" y="-420" width="270" height="310" as="geometry" />
        </mxCell>
        <mxCell id="n7dm7IWdY8Db8kC47B_b-76" value="" style="sketch=0;pointerEvents=1;shadow=0;dashed=0;html=1;strokeColor=#6c8ebf;fillColor=#dae8fc;labelPosition=center;verticalLabelPosition=bottom;verticalAlign=top;align=center;outlineConnect=0;shape=mxgraph.veeam2.server;rounded=0;fontFamily=Helvetica;fontSize=13;movable=1;resizable=1;rotatable=1;deletable=1;editable=1;connectable=1;locked=0;" parent="n7dm7IWdY8Db8kC47B_b-75" vertex="1">
          <mxGeometry width="270" height="310" as="geometry" />
        </mxCell>
        <mxCell id="n7dm7IWdY8Db8kC47B_b-77" value="" style="group" parent="n7dm7IWdY8Db8kC47B_b-75" vertex="1" connectable="0">
          <mxGeometry x="167.79661016949152" y="53.420365535248045" width="80.84745762711864" height="250.91383812010446" as="geometry" />
        </mxCell>
        <mxCell id="n7dm7IWdY8Db8kC47B_b-78" value="" style="rounded=1;whiteSpace=wrap;html=1;fontSize=15;fillColor=#D5E8D4;movable=1;resizable=1;rotatable=1;deletable=1;editable=1;connectable=1;container=0;strokeColor=#006600;" parent="n7dm7IWdY8Db8kC47B_b-77" vertex="1">
          <mxGeometry width="61.01694915254237" height="97.12793733681463" as="geometry" />
        </mxCell>
        <mxCell id="n7dm7IWdY8Db8kC47B_b-79" value="&lt;div style=&quot;font-size: 9px;&quot;&gt;&lt;span style=&quot;background-color: initial;&quot;&gt;partition &lt;b&gt;A&lt;/b&gt;&lt;/span&gt;&lt;/div&gt;" style="text;html=1;strokeColor=none;fillColor=none;align=center;verticalAlign=middle;whiteSpace=wrap;rounded=0;movable=1;resizable=1;rotatable=1;deletable=1;editable=1;connectable=1;container=0;" parent="n7dm7IWdY8Db8kC47B_b-77" vertex="1">
          <mxGeometry width="61.01694915254237" height="16.187989556135772" as="geometry" />
        </mxCell>
        <mxCell id="n7dm7IWdY8Db8kC47B_b-80" value="&lt;span style=&quot;color: rgb(0, 0, 0); font-family: Helvetica; font-size: 11px; font-style: normal; font-variant-ligatures: normal; font-variant-caps: normal; letter-spacing: normal; orphans: 2; text-align: center; text-indent: 0px; text-transform: none; widows: 2; word-spacing: 0px; -webkit-text-stroke-width: 0px; background-color: initial; text-decoration-thickness: initial; text-decoration-style: initial; text-decoration-color: initial;&quot;&gt;version &lt;b&gt;1&lt;/b&gt;&lt;/span&gt;" style="text;html=1;strokeColor=none;fillColor=none;align=center;verticalAlign=middle;whiteSpace=wrap;rounded=0;fontSize=15;movable=1;resizable=1;rotatable=1;deletable=1;editable=1;connectable=1;container=0;" parent="n7dm7IWdY8Db8kC47B_b-77" vertex="1">
          <mxGeometry y="80.93994778067885" width="61.01694915254237" height="16.187989556135772" as="geometry" />
        </mxCell>
        <mxCell id="n7dm7IWdY8Db8kC47B_b-81" value="" style="aspect=fixed;perimeter=ellipsePerimeter;html=1;align=center;shadow=0;dashed=0;fontColor=#4277BB;labelBackgroundColor=#ffffff;fontSize=12;spacingTop=3;image;image=img/lib/ibm/applications/index.svg;imageBackground=none;movable=1;resizable=1;rotatable=1;deletable=1;editable=1;connectable=1;container=0;" parent="n7dm7IWdY8Db8kC47B_b-77" vertex="1">
          <mxGeometry y="16.187989556135772" width="61.01694915254237" height="61.01694915254237" as="geometry" />
        </mxCell>
        <mxCell id="n7dm7IWdY8Db8kC47B_b-82" value="" style="group;movable=1;resizable=1;rotatable=1;deletable=1;editable=1;connectable=1;locked=0;" parent="n7dm7IWdY8Db8kC47B_b-75" vertex="1" connectable="0">
          <mxGeometry x="167.79661016949152" y="178.0678851174935" width="61.01694915254237" height="97.12793733681463" as="geometry" />
        </mxCell>
        <mxCell id="n7dm7IWdY8Db8kC47B_b-83" value="" style="rounded=1;whiteSpace=wrap;html=1;fontSize=15;fillColor=#D5E8D4;movable=1;resizable=1;rotatable=1;deletable=1;editable=1;connectable=1;container=0;strokeColor=#006600;locked=0;" parent="n7dm7IWdY8Db8kC47B_b-82" vertex="1">
          <mxGeometry width="61.01694915254237" height="97.12793733681463" as="geometry" />
        </mxCell>
        <mxCell id="n7dm7IWdY8Db8kC47B_b-84" value="&lt;div style=&quot;font-size: 11px;&quot;&gt;&lt;span style=&quot;background-color: initial;&quot;&gt;partition &lt;b&gt;B&lt;/b&gt;&lt;/span&gt;&lt;/div&gt;" style="text;html=1;strokeColor=none;fillColor=none;align=center;verticalAlign=middle;whiteSpace=wrap;rounded=0;movable=1;resizable=1;rotatable=1;deletable=1;editable=1;connectable=1;container=0;locked=0;" parent="n7dm7IWdY8Db8kC47B_b-82" vertex="1">
          <mxGeometry width="61.01694915254237" height="16.187989556135772" as="geometry" />
        </mxCell>
        <mxCell id="n7dm7IWdY8Db8kC47B_b-85" value="&lt;span style=&quot;color: rgb(0, 0, 0); font-family: Helvetica; font-size: 12px; font-style: normal; font-variant-ligatures: normal; font-variant-caps: normal; letter-spacing: normal; orphans: 2; text-align: center; text-indent: 0px; text-transform: none; widows: 2; word-spacing: 0px; -webkit-text-stroke-width: 0px; background-color: initial; text-decoration-thickness: initial; text-decoration-style: initial; text-decoration-color: initial;&quot;&gt;version &lt;b&gt;1&lt;/b&gt;&lt;/span&gt;" style="text;html=1;strokeColor=none;fillColor=none;align=center;verticalAlign=middle;whiteSpace=wrap;rounded=0;fontSize=15;movable=1;resizable=1;rotatable=1;deletable=1;editable=1;connectable=1;container=0;locked=0;" parent="n7dm7IWdY8Db8kC47B_b-82" vertex="1">
          <mxGeometry y="80.93994778067885" width="61.01694915254237" height="16.187989556135772" as="geometry" />
        </mxCell>
        <mxCell id="n7dm7IWdY8Db8kC47B_b-86" value="" style="aspect=fixed;perimeter=ellipsePerimeter;html=1;align=center;shadow=0;dashed=0;fontColor=#4277BB;labelBackgroundColor=#ffffff;fontSize=12;spacingTop=3;image;image=img/lib/ibm/applications/index.svg;imageBackground=none;movable=1;resizable=1;rotatable=1;deletable=1;editable=1;connectable=1;container=0;locked=0;" parent="n7dm7IWdY8Db8kC47B_b-82" vertex="1">
          <mxGeometry y="16.187989556135772" width="61.01694915254237" height="61.01694915254237" as="geometry" />
        </mxCell>
        <mxCell id="n7dm7IWdY8Db8kC47B_b-87" value="" style="swimlane;startSize=0;" parent="n7dm7IWdY8Db8kC47B_b-75" vertex="1">
          <mxGeometry x="133.47457627118644" y="16.187989556135772" width="129.66101694915253" height="267.10182767624025" as="geometry">
            <mxRectangle x="1958" y="-330" width="50" height="40" as="alternateBounds" />
          </mxGeometry>
        </mxCell>
        <mxCell id="n7dm7IWdY8Db8kC47B_b-88" value="Swarm&lt;br&gt;worker" style="text;html=1;strokeColor=none;fillColor=none;align=center;verticalAlign=middle;whiteSpace=wrap;rounded=0;" parent="n7dm7IWdY8Db8kC47B_b-87" vertex="1">
          <mxGeometry x="41.94915254237293" y="9.52999999999998" width="45.762711864406775" height="24.281984334203656" as="geometry" />
        </mxCell>
        <mxCell id="n7dm7IWdY8Db8kC47B_b-89" value="Индекс 2" style="rounded=0;whiteSpace=wrap;html=1;" parent="n7dm7IWdY8Db8kC47B_b-75" vertex="1">
          <mxGeometry x="81.95000000000005" width="106.1" height="10" as="geometry" />
        </mxCell>
        <mxCell id="n7dm7IWdY8Db8kC47B_b-93" style="edgeStyle=orthogonalEdgeStyle;rounded=0;orthogonalLoop=1;jettySize=auto;html=1;entryX=0.001;entryY=0.345;entryDx=0;entryDy=0;entryPerimeter=0;" parent="1" source="n7dm7IWdY8Db8kC47B_b-18" target="n7dm7IWdY8Db8kC47B_b-87" edge="1">
          <mxGeometry relative="1" as="geometry" />
        </mxCell>
        <mxCell id="n7dm7IWdY8Db8kC47B_b-95" style="edgeStyle=orthogonalEdgeStyle;rounded=0;orthogonalLoop=1;jettySize=auto;html=1;" parent="1" source="n7dm7IWdY8Db8kC47B_b-18" target="n7dm7IWdY8Db8kC47B_b-61" edge="1">
          <mxGeometry relative="1" as="geometry">
            <Array as="points">
              <mxPoint x="885" y="-770" />
              <mxPoint x="1130" y="-770" />
              <mxPoint x="1130" y="-585" />
            </Array>
          </mxGeometry>
        </mxCell>
        <mxCell id="n7dm7IWdY8Db8kC47B_b-97" style="edgeStyle=orthogonalEdgeStyle;rounded=0;orthogonalLoop=1;jettySize=auto;html=1;entryX=-0.002;entryY=0.61;entryDx=0;entryDy=0;entryPerimeter=0;" parent="1" source="n7dm7IWdY8Db8kC47B_b-18" target="n7dm7IWdY8Db8kC47B_b-57" edge="1">
          <mxGeometry relative="1" as="geometry">
            <Array as="points">
              <mxPoint x="1120" y="-600" />
              <mxPoint x="1120" y="-241" />
            </Array>
          </mxGeometry>
        </mxCell>
        <mxCell id="n7dm7IWdY8Db8kC47B_b-99" style="edgeStyle=orthogonalEdgeStyle;rounded=0;orthogonalLoop=1;jettySize=auto;html=1;" parent="1" source="YXiRsPyqj9DePGO95qDk-704" target="n7dm7IWdY8Db8kC47B_b-18" edge="1">
          <mxGeometry relative="1" as="geometry" />
        </mxCell>
        <mxCell id="n7dm7IWdY8Db8kC47B_b-101" style="edgeStyle=orthogonalEdgeStyle;rounded=0;orthogonalLoop=1;jettySize=auto;html=1;" parent="1" source="n7dm7IWdY8Db8kC47B_b-100" target="YXiRsPyqj9DePGO95qDk-706" edge="1">
          <mxGeometry relative="1" as="geometry" />
        </mxCell>
        <mxCell id="n7dm7IWdY8Db8kC47B_b-100" value="Входные данные" style="whiteSpace=wrap;html=1;aspect=fixed;" parent="1" vertex="1">
          <mxGeometry x="670" y="-860" width="80" height="80" as="geometry" />
        </mxCell>
        <mxCell id="n7dm7IWdY8Db8kC47B_b-103" value="" style="endArrow=classic;startArrow=classic;html=1;rounded=0;entryX=0.5;entryY=1;entryDx=0;entryDy=0;entryPerimeter=0;" parent="1" source="YXiRsPyqj9DePGO95qDk-74" target="YXiRsPyqj9DePGO95qDk-704" edge="1">
          <mxGeometry width="50" height="50" relative="1" as="geometry">
            <mxPoint x="670" y="-490" as="sourcePoint" />
            <mxPoint x="720" y="-540" as="targetPoint" />
          </mxGeometry>
        </mxCell>
        <mxCell id="5JsjofjrpPDgLBYnoY3X-2" value="Конфигурация" style="rounded=0;whiteSpace=wrap;html=1;" parent="1" vertex="1">
          <mxGeometry x="1005.01" y="-940" width="120" height="60" as="geometry" />
        </mxCell>
        <mxCell id="R55W_eNhgEZuxN9_E6_g-1" value="" style="group" vertex="1" connectable="0" parent="1">
          <mxGeometry x="2150" y="-410" width="80" height="120" as="geometry" />
        </mxCell>
        <mxCell id="R55W_eNhgEZuxN9_E6_g-2" value="" style="rounded=1;whiteSpace=wrap;html=1;shadow=0;fontSize=15;movable=1;resizable=1;rotatable=1;deletable=1;editable=1;connectable=1;fillColor=#d5e8d4;strokeColor=#82b366;" vertex="1" parent="R55W_eNhgEZuxN9_E6_g-1">
          <mxGeometry width="80" height="120" as="geometry" />
        </mxCell>
        <mxCell id="R55W_eNhgEZuxN9_E6_g-3" value="" style="outlineConnect=0;dashed=0;verticalLabelPosition=bottom;verticalAlign=top;align=center;html=1;shape=mxgraph.aws3.application_load_balancer;fillColor=#F58534;gradientColor=none;fontSize=18;strokeColor=default;shadow=0;movable=1;resizable=1;rotatable=1;deletable=1;editable=1;connectable=1;" vertex="1" parent="R55W_eNhgEZuxN9_E6_g-1">
          <mxGeometry y="40" width="80" height="80" as="geometry" />
        </mxCell>
        <mxCell id="R55W_eNhgEZuxN9_E6_g-4" value="&lt;font style=&quot;font-size: 13px;&quot;&gt;PARTICIAN&amp;nbsp;&lt;br&gt;GATEWAY&lt;/font&gt;" style="text;html=1;strokeColor=none;fillColor=none;align=center;verticalAlign=middle;whiteSpace=wrap;rounded=0;shadow=0;fontSize=18;movable=1;resizable=1;rotatable=1;deletable=1;editable=1;connectable=1;" vertex="1" parent="R55W_eNhgEZuxN9_E6_g-1">
          <mxGeometry width="80" height="40" as="geometry" />
        </mxCell>
        <mxCell id="R55W_eNhgEZuxN9_E6_g-10" style="edgeStyle=orthogonalEdgeStyle;rounded=0;orthogonalLoop=1;jettySize=auto;html=1;strokeColor=#b85450;strokeWidth=3;fontFamily=Helvetica;fontSize=27;fontColor=#333333;fillColor=#f8cecc;" edge="1" parent="1">
          <mxGeometry relative="1" as="geometry">
            <mxPoint x="2222" y="-70" as="sourcePoint" />
            <mxPoint x="2222" y="-130" as="targetPoint" />
          </mxGeometry>
        </mxCell>
        <mxCell id="R55W_eNhgEZuxN9_E6_g-11" value="" style="group" vertex="1" connectable="0" parent="1">
          <mxGeometry x="1962" y="-270" width="120" height="140" as="geometry" />
        </mxCell>
        <mxCell id="R55W_eNhgEZuxN9_E6_g-12" value="" style="sketch=0;pointerEvents=1;shadow=0;dashed=0;html=1;strokeColor=none;fillColor=#E6E6E6;labelPosition=center;verticalLabelPosition=bottom;verticalAlign=top;align=center;outlineConnect=0;shape=mxgraph.veeam2.server;rounded=0;fontFamily=Helvetica;fontSize=13;fontColor=default;movable=1;resizable=1;rotatable=1;deletable=1;editable=1;connectable=1;" vertex="1" parent="R55W_eNhgEZuxN9_E6_g-11">
          <mxGeometry width="120" height="140" as="geometry" />
        </mxCell>
        <mxCell id="R55W_eNhgEZuxN9_E6_g-13" value="" style="group;movable=1;resizable=1;rotatable=1;deletable=1;editable=1;connectable=1;" vertex="1" connectable="0" parent="R55W_eNhgEZuxN9_E6_g-11">
          <mxGeometry x="20" y="10" width="80" height="120" as="geometry" />
        </mxCell>
        <mxCell id="R55W_eNhgEZuxN9_E6_g-14" value="" style="rounded=1;whiteSpace=wrap;html=1;fontSize=15;fillColor=#D5E8D4;movable=1;resizable=1;rotatable=1;deletable=1;editable=1;connectable=1;container=0;strokeColor=#006600;" vertex="1" parent="R55W_eNhgEZuxN9_E6_g-13">
          <mxGeometry width="80" height="120" as="geometry" />
        </mxCell>
        <mxCell id="R55W_eNhgEZuxN9_E6_g-15" value="&lt;div style=&quot;&quot;&gt;&lt;span style=&quot;font-size: 15px; background-color: initial;&quot;&gt;partition &lt;b&gt;A&lt;/b&gt;&lt;/span&gt;&lt;/div&gt;" style="text;html=1;strokeColor=none;fillColor=none;align=center;verticalAlign=middle;whiteSpace=wrap;rounded=0;movable=1;resizable=1;rotatable=1;deletable=1;editable=1;connectable=1;container=0;" vertex="1" parent="R55W_eNhgEZuxN9_E6_g-13">
          <mxGeometry width="80" height="20" as="geometry" />
        </mxCell>
        <mxCell id="R55W_eNhgEZuxN9_E6_g-16" value="&lt;span style=&quot;color: rgb(0, 0, 0); font-family: Helvetica; font-size: 15px; font-style: normal; font-variant-ligatures: normal; font-variant-caps: normal; letter-spacing: normal; orphans: 2; text-align: center; text-indent: 0px; text-transform: none; widows: 2; word-spacing: 0px; -webkit-text-stroke-width: 0px; background-color: initial; text-decoration-thickness: initial; text-decoration-style: initial; text-decoration-color: initial;&quot;&gt;version &lt;b&gt;2&lt;/b&gt;&lt;/span&gt;" style="text;html=1;strokeColor=none;fillColor=none;align=center;verticalAlign=middle;whiteSpace=wrap;rounded=0;fontSize=15;movable=1;resizable=1;rotatable=1;deletable=1;editable=1;connectable=1;container=0;" vertex="1" parent="R55W_eNhgEZuxN9_E6_g-13">
          <mxGeometry y="100" width="80" height="20" as="geometry" />
        </mxCell>
        <mxCell id="R55W_eNhgEZuxN9_E6_g-17" value="" style="aspect=fixed;perimeter=ellipsePerimeter;html=1;align=center;shadow=0;dashed=0;fontColor=#4277BB;labelBackgroundColor=#ffffff;fontSize=12;spacingTop=3;image;image=img/lib/ibm/applications/index.svg;imageBackground=none;movable=1;resizable=1;rotatable=1;deletable=1;editable=1;connectable=1;container=0;" vertex="1" parent="R55W_eNhgEZuxN9_E6_g-13">
          <mxGeometry y="20" width="80" height="80" as="geometry" />
        </mxCell>
        <mxCell id="R55W_eNhgEZuxN9_E6_g-23" value="" style="group;movable=1;resizable=1;rotatable=1;deletable=1;editable=1;connectable=1;locked=0;" vertex="1" connectable="0" parent="1">
          <mxGeometry x="2182" y="-250" width="80" height="120" as="geometry" />
        </mxCell>
        <mxCell id="R55W_eNhgEZuxN9_E6_g-24" value="" style="rounded=1;whiteSpace=wrap;html=1;fontSize=15;fillColor=#f8cecc;movable=0;resizable=0;rotatable=0;deletable=0;editable=0;connectable=0;container=0;strokeColor=#b85450;" vertex="1" parent="R55W_eNhgEZuxN9_E6_g-23">
          <mxGeometry width="80" height="120" as="geometry" />
        </mxCell>
        <mxCell id="R55W_eNhgEZuxN9_E6_g-25" value="" style="aspect=fixed;perimeter=ellipsePerimeter;html=1;align=center;shadow=0;dashed=0;fontColor=#4277BB;labelBackgroundColor=#ffffff;fontSize=12;spacingTop=3;image;image=img/lib/ibm/applications/index.svg;imageBackground=none;movable=1;resizable=1;rotatable=1;deletable=1;editable=1;connectable=1;container=0;locked=0;" vertex="1" parent="R55W_eNhgEZuxN9_E6_g-23">
          <mxGeometry y="20" width="80" height="80" as="geometry" />
        </mxCell>
        <mxCell id="R55W_eNhgEZuxN9_E6_g-26" value="&lt;div style=&quot;&quot;&gt;&lt;span style=&quot;font-size: 15px; background-color: initial;&quot;&gt;partition &lt;b&gt;B&lt;/b&gt;&lt;/span&gt;&lt;/div&gt;" style="text;html=1;strokeColor=none;fillColor=none;align=center;verticalAlign=middle;whiteSpace=wrap;rounded=0;movable=0;resizable=0;rotatable=0;deletable=0;editable=0;connectable=0;container=0;" vertex="1" parent="R55W_eNhgEZuxN9_E6_g-23">
          <mxGeometry width="80" height="20" as="geometry" />
        </mxCell>
        <mxCell id="R55W_eNhgEZuxN9_E6_g-27" value="&lt;span style=&quot;color: rgb(0, 0, 0); font-family: Helvetica; font-size: 15px; font-style: normal; font-variant-ligatures: normal; font-variant-caps: normal; letter-spacing: normal; orphans: 2; text-align: center; text-indent: 0px; text-transform: none; widows: 2; word-spacing: 0px; -webkit-text-stroke-width: 0px; background-color: initial; text-decoration-thickness: initial; text-decoration-style: initial; text-decoration-color: initial;&quot;&gt;version &lt;b&gt;1&lt;/b&gt;&lt;/span&gt;" style="text;html=1;strokeColor=none;fillColor=none;align=center;verticalAlign=middle;whiteSpace=wrap;rounded=0;fontSize=15;movable=0;resizable=0;rotatable=0;deletable=0;editable=0;connectable=0;container=0;" vertex="1" parent="R55W_eNhgEZuxN9_E6_g-23">
          <mxGeometry y="100" width="80" height="20" as="geometry" />
        </mxCell>
        <mxCell id="R55W_eNhgEZuxN9_E6_g-41" value="" style="group;movable=1;resizable=1;rotatable=1;deletable=1;editable=1;connectable=1;locked=0;" vertex="1" connectable="0" parent="1">
          <mxGeometry x="2172" y="-70" width="80" height="120" as="geometry" />
        </mxCell>
        <mxCell id="R55W_eNhgEZuxN9_E6_g-42" value="" style="rounded=1;whiteSpace=wrap;html=1;shadow=0;fontSize=15;movable=1;resizable=1;rotatable=1;deletable=1;editable=1;connectable=1;fillColor=#f8cecc;strokeColor=#b85450;locked=0;" vertex="1" parent="R55W_eNhgEZuxN9_E6_g-41">
          <mxGeometry width="80" height="120" as="geometry" />
        </mxCell>
        <mxCell id="R55W_eNhgEZuxN9_E6_g-43" value="" style="outlineConnect=0;dashed=0;verticalLabelPosition=bottom;verticalAlign=top;align=center;html=1;shape=mxgraph.aws3.application_load_balancer;fillColor=#F58534;gradientColor=none;fontSize=18;strokeColor=default;shadow=0;movable=1;resizable=1;rotatable=1;deletable=1;editable=1;connectable=1;locked=0;" vertex="1" parent="R55W_eNhgEZuxN9_E6_g-41">
          <mxGeometry y="40" width="80" height="80" as="geometry" />
        </mxCell>
        <mxCell id="R55W_eNhgEZuxN9_E6_g-44" value="&lt;font style=&quot;font-size: 13px;&quot;&gt;PARTICIAN&amp;nbsp;&lt;br&gt;GATEWAY&lt;/font&gt;" style="text;html=1;strokeColor=none;fillColor=none;align=center;verticalAlign=middle;whiteSpace=wrap;rounded=0;shadow=0;fontSize=18;movable=1;resizable=1;rotatable=1;deletable=1;editable=1;connectable=1;locked=0;" vertex="1" parent="R55W_eNhgEZuxN9_E6_g-41">
          <mxGeometry width="80" height="40" as="geometry" />
        </mxCell>
        <mxCell id="R55W_eNhgEZuxN9_E6_g-46" style="edgeStyle=orthogonalEdgeStyle;rounded=0;orthogonalLoop=1;jettySize=auto;html=1;fontFamily=Helvetica;fontSize=16;fontColor=default;strokeWidth=3;fillColor=#f8cecc;strokeColor=#b85450;" edge="1" parent="1">
          <mxGeometry relative="1" as="geometry">
            <mxPoint x="2170" y="-39.950000000000045" as="sourcePoint" />
            <mxPoint x="2010" y="-130.00263157894756" as="targetPoint" />
          </mxGeometry>
        </mxCell>
        <mxCell id="R55W_eNhgEZuxN9_E6_g-48" value="&lt;font style=&quot;font-size: 20px;&quot;&gt;Как только партиция А будет готова к работе, обновим gateway&lt;/font&gt;" style="text;html=1;strokeColor=none;fillColor=none;align=center;verticalAlign=middle;whiteSpace=wrap;rounded=0;shadow=0;fontFamily=Helvetica;fontSize=16;fontColor=default;" vertex="1" parent="1">
          <mxGeometry x="1712" y="-340" width="160" height="360" as="geometry" />
        </mxCell>
        <mxCell id="R55W_eNhgEZuxN9_E6_g-69" value="" style="group" vertex="1" connectable="0" parent="1">
          <mxGeometry x="1952" y="400" width="520" height="320" as="geometry" />
        </mxCell>
        <mxCell id="R55W_eNhgEZuxN9_E6_g-71" value="" style="group" vertex="1" connectable="0" parent="R55W_eNhgEZuxN9_E6_g-69">
          <mxGeometry width="120" height="140" as="geometry" />
        </mxCell>
        <mxCell id="R55W_eNhgEZuxN9_E6_g-72" value="" style="sketch=0;pointerEvents=1;shadow=0;dashed=0;html=1;strokeColor=none;fillColor=#E6E6E6;labelPosition=center;verticalLabelPosition=bottom;verticalAlign=top;align=center;outlineConnect=0;shape=mxgraph.veeam2.server;rounded=0;fontFamily=Helvetica;fontSize=13;fontColor=default;movable=1;resizable=1;rotatable=1;deletable=1;editable=1;connectable=1;" vertex="1" parent="R55W_eNhgEZuxN9_E6_g-71">
          <mxGeometry width="120" height="140" as="geometry" />
        </mxCell>
        <mxCell id="R55W_eNhgEZuxN9_E6_g-73" value="" style="group;movable=1;resizable=1;rotatable=1;deletable=1;editable=1;connectable=1;" vertex="1" connectable="0" parent="R55W_eNhgEZuxN9_E6_g-71">
          <mxGeometry x="20" y="10" width="80" height="120" as="geometry" />
        </mxCell>
        <mxCell id="R55W_eNhgEZuxN9_E6_g-74" value="" style="rounded=1;whiteSpace=wrap;html=1;fontSize=15;fillColor=#D5E8D4;movable=1;resizable=1;rotatable=1;deletable=1;editable=1;connectable=1;container=0;strokeColor=#006600;" vertex="1" parent="R55W_eNhgEZuxN9_E6_g-73">
          <mxGeometry width="80" height="120" as="geometry" />
        </mxCell>
        <mxCell id="R55W_eNhgEZuxN9_E6_g-75" value="&lt;div style=&quot;&quot;&gt;&lt;span style=&quot;font-size: 15px; background-color: initial;&quot;&gt;partition &lt;b&gt;A&lt;/b&gt;&lt;/span&gt;&lt;/div&gt;" style="text;html=1;strokeColor=none;fillColor=none;align=center;verticalAlign=middle;whiteSpace=wrap;rounded=0;movable=1;resizable=1;rotatable=1;deletable=1;editable=1;connectable=1;container=0;" vertex="1" parent="R55W_eNhgEZuxN9_E6_g-73">
          <mxGeometry width="80" height="20" as="geometry" />
        </mxCell>
        <mxCell id="R55W_eNhgEZuxN9_E6_g-76" value="&lt;span style=&quot;color: rgb(0, 0, 0); font-family: Helvetica; font-size: 15px; font-style: normal; font-variant-ligatures: normal; font-variant-caps: normal; letter-spacing: normal; orphans: 2; text-align: center; text-indent: 0px; text-transform: none; widows: 2; word-spacing: 0px; -webkit-text-stroke-width: 0px; background-color: initial; text-decoration-thickness: initial; text-decoration-style: initial; text-decoration-color: initial;&quot;&gt;version &lt;b&gt;2&lt;/b&gt;&lt;/span&gt;" style="text;html=1;strokeColor=none;fillColor=none;align=center;verticalAlign=middle;whiteSpace=wrap;rounded=0;fontSize=15;movable=1;resizable=1;rotatable=1;deletable=1;editable=1;connectable=1;container=0;" vertex="1" parent="R55W_eNhgEZuxN9_E6_g-73">
          <mxGeometry y="100" width="80" height="20" as="geometry" />
        </mxCell>
        <mxCell id="R55W_eNhgEZuxN9_E6_g-77" value="" style="aspect=fixed;perimeter=ellipsePerimeter;html=1;align=center;shadow=0;dashed=0;fontColor=#4277BB;labelBackgroundColor=#ffffff;fontSize=12;spacingTop=3;image;image=img/lib/ibm/applications/index.svg;imageBackground=none;movable=1;resizable=1;rotatable=1;deletable=1;editable=1;connectable=1;container=0;" vertex="1" parent="R55W_eNhgEZuxN9_E6_g-73">
          <mxGeometry y="20" width="80" height="80" as="geometry" />
        </mxCell>
        <mxCell id="R55W_eNhgEZuxN9_E6_g-78" style="edgeStyle=orthogonalEdgeStyle;rounded=0;orthogonalLoop=1;jettySize=auto;html=1;strokeColor=#82b366;strokeWidth=3;fontFamily=Helvetica;fontSize=27;fontColor=#333333;fillColor=#d5e8d4;" edge="1" parent="R55W_eNhgEZuxN9_E6_g-69" target="R55W_eNhgEZuxN9_E6_g-72">
          <mxGeometry relative="1" as="geometry">
            <mxPoint x="220" y="260.0526315789475" as="sourcePoint" />
          </mxGeometry>
        </mxCell>
        <mxCell id="R55W_eNhgEZuxN9_E6_g-79" value="" style="group" vertex="1" connectable="0" parent="R55W_eNhgEZuxN9_E6_g-69">
          <mxGeometry x="220" y="200" width="80" height="120" as="geometry" />
        </mxCell>
        <mxCell id="R55W_eNhgEZuxN9_E6_g-80" value="" style="rounded=1;whiteSpace=wrap;html=1;shadow=0;fontSize=15;movable=1;resizable=1;rotatable=1;deletable=1;editable=1;connectable=1;fillColor=#d5e8d4;strokeColor=#82b366;" vertex="1" parent="R55W_eNhgEZuxN9_E6_g-79">
          <mxGeometry width="80" height="120" as="geometry" />
        </mxCell>
        <mxCell id="R55W_eNhgEZuxN9_E6_g-81" value="" style="outlineConnect=0;dashed=0;verticalLabelPosition=bottom;verticalAlign=top;align=center;html=1;shape=mxgraph.aws3.application_load_balancer;fillColor=#F58534;gradientColor=none;fontSize=18;strokeColor=default;shadow=0;movable=1;resizable=1;rotatable=1;deletable=1;editable=1;connectable=1;" vertex="1" parent="R55W_eNhgEZuxN9_E6_g-79">
          <mxGeometry y="40" width="80" height="80" as="geometry" />
        </mxCell>
        <mxCell id="R55W_eNhgEZuxN9_E6_g-82" value="&lt;font style=&quot;font-size: 13px;&quot;&gt;PARTICIAN&amp;nbsp;&lt;br&gt;GATEWAY&lt;/font&gt;" style="text;html=1;strokeColor=none;fillColor=none;align=center;verticalAlign=middle;whiteSpace=wrap;rounded=0;shadow=0;fontSize=18;movable=1;resizable=1;rotatable=1;deletable=1;editable=1;connectable=1;" vertex="1" parent="R55W_eNhgEZuxN9_E6_g-79">
          <mxGeometry width="80" height="40" as="geometry" />
        </mxCell>
        <mxCell id="R55W_eNhgEZuxN9_E6_g-94" value="" style="group;movable=1;resizable=1;rotatable=1;deletable=1;editable=1;connectable=1;locked=0;" vertex="1" connectable="0" parent="R55W_eNhgEZuxN9_E6_g-69">
          <mxGeometry x="220" y="20" width="80" height="120" as="geometry" />
        </mxCell>
        <mxCell id="R55W_eNhgEZuxN9_E6_g-95" value="" style="rounded=1;whiteSpace=wrap;html=1;fontSize=15;fillColor=#D5E8D4;movable=1;resizable=1;rotatable=1;deletable=1;editable=1;connectable=1;container=0;strokeColor=#006600;locked=0;" vertex="1" parent="R55W_eNhgEZuxN9_E6_g-94">
          <mxGeometry width="80" height="120" as="geometry" />
        </mxCell>
        <mxCell id="R55W_eNhgEZuxN9_E6_g-96" value="&lt;div style=&quot;&quot;&gt;&lt;span style=&quot;font-size: 15px; background-color: initial;&quot;&gt;partition &lt;b&gt;B&lt;/b&gt;&lt;/span&gt;&lt;/div&gt;" style="text;html=1;strokeColor=none;fillColor=none;align=center;verticalAlign=middle;whiteSpace=wrap;rounded=0;movable=1;resizable=1;rotatable=1;deletable=1;editable=1;connectable=1;container=0;locked=0;" vertex="1" parent="R55W_eNhgEZuxN9_E6_g-94">
          <mxGeometry width="80" height="20" as="geometry" />
        </mxCell>
        <mxCell id="R55W_eNhgEZuxN9_E6_g-97" value="&lt;span style=&quot;color: rgb(0, 0, 0); font-family: Helvetica; font-size: 15px; font-style: normal; font-variant-ligatures: normal; font-variant-caps: normal; letter-spacing: normal; orphans: 2; text-align: center; text-indent: 0px; text-transform: none; widows: 2; word-spacing: 0px; -webkit-text-stroke-width: 0px; background-color: initial; text-decoration-thickness: initial; text-decoration-style: initial; text-decoration-color: initial;&quot;&gt;version &lt;b&gt;2&lt;/b&gt;&lt;/span&gt;" style="text;html=1;strokeColor=none;fillColor=none;align=center;verticalAlign=middle;whiteSpace=wrap;rounded=0;fontSize=15;movable=1;resizable=1;rotatable=1;deletable=1;editable=1;connectable=1;container=0;locked=0;" vertex="1" parent="R55W_eNhgEZuxN9_E6_g-94">
          <mxGeometry y="100" width="80" height="20" as="geometry" />
        </mxCell>
        <mxCell id="R55W_eNhgEZuxN9_E6_g-98" value="" style="aspect=fixed;perimeter=ellipsePerimeter;html=1;align=center;shadow=0;dashed=0;fontColor=#4277BB;labelBackgroundColor=#ffffff;fontSize=12;spacingTop=3;image;image=img/lib/ibm/applications/index.svg;imageBackground=none;movable=1;resizable=1;rotatable=1;deletable=1;editable=1;connectable=1;container=0;locked=0;" vertex="1" parent="R55W_eNhgEZuxN9_E6_g-94">
          <mxGeometry y="20" width="80" height="80" as="geometry" />
        </mxCell>
        <mxCell id="R55W_eNhgEZuxN9_E6_g-103" style="edgeStyle=orthogonalEdgeStyle;rounded=0;orthogonalLoop=1;jettySize=auto;html=1;strokeWidth=3;fontFamily=Helvetica;fontSize=16;fontColor=default;fillColor=#d5e8d4;strokeColor=#82b366;entryX=0.5;entryY=1;entryDx=0;entryDy=0;exitX=0.5;exitY=0;exitDx=0;exitDy=0;" edge="1" parent="R55W_eNhgEZuxN9_E6_g-69" source="R55W_eNhgEZuxN9_E6_g-82" target="R55W_eNhgEZuxN9_E6_g-97">
          <mxGeometry relative="1" as="geometry">
            <mxPoint x="259.5" y="190" as="sourcePoint" />
            <mxPoint x="259.5" y="149.99999999999955" as="targetPoint" />
          </mxGeometry>
        </mxCell>
        <mxCell id="R55W_eNhgEZuxN9_E6_g-99" value="" style="edgeStyle=orthogonalEdgeStyle;rounded=0;orthogonalLoop=1;jettySize=auto;html=1;" edge="1" parent="1" source="YXiRsPyqj9DePGO95qDk-715" target="YXiRsPyqj9DePGO95qDk-652">
          <mxGeometry relative="1" as="geometry" />
        </mxCell>
        <mxCell id="R55W_eNhgEZuxN9_E6_g-100" value="" style="edgeStyle=orthogonalEdgeStyle;rounded=0;orthogonalLoop=1;jettySize=auto;html=1;" edge="1" parent="1" source="YXiRsPyqj9DePGO95qDk-715" target="YXiRsPyqj9DePGO95qDk-652">
          <mxGeometry relative="1" as="geometry" />
        </mxCell>
        <mxCell id="R55W_eNhgEZuxN9_E6_g-105" value="&lt;h2&gt;&lt;font style=&quot;&quot;&gt;&lt;font style=&quot;font-size: 46px;&quot;&gt;Процесс обновление системы&lt;/font&gt;&lt;/font&gt;&lt;/h2&gt;" style="text;html=1;strokeColor=none;fillColor=none;align=left;verticalAlign=middle;whiteSpace=wrap;rounded=0;fontSize=15;movable=1;resizable=1;rotatable=1;deletable=1;editable=1;connectable=1;" vertex="1" parent="1">
          <mxGeometry x="1722" y="740" width="720" height="80" as="geometry" />
        </mxCell>
        <mxCell id="R55W_eNhgEZuxN9_E6_g-106" value="&lt;font style=&quot;font-size: 21px;&quot;&gt;Поскольку процесс обновления предполагает простой, логичнее обновлять&lt;br&gt;&amp;nbsp;индексы на всех серверах параллельно, чтобы это время минимизировать&lt;/font&gt;" style="text;html=1;align=center;verticalAlign=middle;resizable=0;points=[];autosize=1;strokeColor=none;fillColor=none;" vertex="1" parent="1">
          <mxGeometry x="1690" y="820" width="760" height="60" as="geometry" />
        </mxCell>
      </root>
    </mxGraphModel>
  </diagram>
</mxfile>
